{
	"sessionTimeLimit":"300",
	"recoverUsingScoreFile": false,
	"maxNumberOfTrials": 6,
	"playbackType": 0,
	"taskInfoList":[
		{"environment":"LayoutX_01","target":"pink_cup_01","destination":"destination_01"},
		{"environment":"LayoutX_02","target":"empty_plastic_bottle_02","destination":"destination_01"},
		{"environment":"LayoutY_01","target":"canned_juice_04","destination":"destination_02"},
		{"environment":"LayoutX_01","target":"pink_cup_02","destination":"destination_02"},
		{"environment":"LayoutX_02","target":"fryingpan_01","destination":"destination_03"},
		{"environment":"LayoutY_01","target":"block_car_05","destination":"destination_01"}
	]
}
