%YAML 1.1
%TAG !u! tag:unity3d.com,2011:
--- !u!29 &1
OcclusionCullingSettings:
  m_ObjectHideFlags: 0
  serializedVersion: 2
  m_OcclusionBakeSettings:
    smallestOccluder: 5
    smallestHole: 0.25
    backfaceThreshold: 100
  m_SceneGUID: 00000000000000000000000000000000
  m_OcclusionCullingData: {fileID: 0}
--- !u!104 &2
RenderSettings:
  m_ObjectHideFlags: 0
  serializedVersion: 8
  m_Fog: 0
  m_FogColor: {r: 0.5, g: 0.5, b: 0.5, a: 1}
  m_FogMode: 3
  m_FogDensity: 0.01
  m_LinearFogStart: 0
  m_LinearFogEnd: 300
  m_AmbientSkyColor: {r: 0.2, g: 0.2, b: 0.2, a: 1}
  m_AmbientEquatorColor: {r: 0.2, g: 0.2, b: 0.2, a: 1}
  m_AmbientGroundColor: {r: 0.2, g: 0.2, b: 0.2, a: 1}
  m_AmbientIntensity: 1
  m_AmbientMode: 3
  m_SubtractiveShadowColor: {r: 0.42, g: 0.478, b: 0.627, a: 1}
  m_SkyboxMaterial: {fileID: 0}
  m_HaloStrength: 0.5
  m_FlareStrength: 1
  m_FlareFadeSpeed: 3
  m_HaloTexture: {fileID: 0}
  m_SpotCookie: {fileID: 10001, guid: 0000000000000000e000000000000000, type: 0}
  m_DefaultReflectionMode: 0
  m_DefaultReflectionResolution: 128
  m_ReflectionBounces: 1
  m_ReflectionIntensity: 1
  m_CustomReflection: {fileID: 0}
  m_Sun: {fileID: 0}
  m_IndirectSpecularColor: {r: 0, g: 0, b: 0, a: 1}
--- !u!157 &4
LightmapSettings:
  m_ObjectHideFlags: 0
  serializedVersion: 11
  m_GIWorkflowMode: 1
  m_GISettings:
    serializedVersion: 2
    m_BounceScale: 1
    m_IndirectOutputScale: 1
    m_AlbedoBoost: 1
    m_TemporalCoherenceThreshold: 1
    m_EnvironmentLightingMode: 0
    m_EnableBakedLightmaps: 1
    m_EnableRealtimeLightmaps: 0
  m_LightmapEditorSettings:
    serializedVersion: 9
    m_Resolution: 1
    m_BakeResolution: 100
    m_TextureWidth: 1024
    m_TextureHeight: 1024
    m_AO: 0
    m_AOMaxDistance: 1
    m_CompAOExponent: 0
    m_CompAOExponentDirect: 0
    m_Padding: 2
    m_LightmapParameters: {fileID: 0}
    m_LightmapsBakeMode: 1
    m_TextureCompression: 0
    m_FinalGather: 0
    m_FinalGatherFiltering: 1
    m_FinalGatherRayCount: 1024
    m_ReflectionCompression: 2
    m_MixedBakeMode: 1
    m_BakeBackend: 0
    m_PVRSampling: 1
    m_PVRDirectSampleCount: 32
    m_PVRSampleCount: 500
    m_PVRBounces: 2
    m_PVRFilterTypeDirect: 0
    m_PVRFilterTypeIndirect: 0
    m_PVRFilterTypeAO: 0
    m_PVRFilteringMode: 0
    m_PVRCulling: 1
    m_PVRFilteringGaussRadiusDirect: 1
    m_PVRFilteringGaussRadiusIndirect: 5
    m_PVRFilteringGaussRadiusAO: 2
    m_PVRFilteringAtrousPositionSigmaDirect: 0.5
    m_PVRFilteringAtrousPositionSigmaIndirect: 2
    m_PVRFilteringAtrousPositionSigmaAO: 1
    m_ShowResolutionOverlay: 1
  m_LightingDataAsset: {fileID: 0}
  m_UseShadowmask: 0
--- !u!196 &5
NavMeshSettings:
  serializedVersion: 2
  m_ObjectHideFlags: 0
  m_BuildSettings:
    serializedVersion: 2
    agentTypeID: 0
    agentRadius: 0.5
    agentHeight: 2
    agentSlope: 45
    agentClimb: 0.4
    ledgeDropHeight: 0
    maxJumpAcrossDistance: 0
    minRegionArea: 2
    manualCellSize: 0
    cellSize: 0.16666666
    manualTileSize: 0
    tileSize: 256
    accuratePlacement: 0
    debug:
      m_Flags: 0
  m_NavMeshData: {fileID: 0}
--- !u!1 &9864409
GameObject:
  m_ObjectHideFlags: 0
  m_PrefabParentObject: {fileID: 100100, guid: 959d14bf134f54a6e993fe6ca6e063c0, type: 3}
  m_PrefabInternal: {fileID: 1812994960}
  serializedVersion: 5
  m_Component:
  - component: {fileID: 9864410}
  m_Layer: 0
  m_Name: BipDummy R Finger21
  m_TagString: Untagged
  m_Icon: {fileID: 0}
  m_NavMeshLayer: 0
  m_StaticEditorFlags: 0
  m_IsActive: 1
--- !u!4 &9864410
Transform:
  m_ObjectHideFlags: 0
  m_PrefabParentObject: {fileID: 400100, guid: 959d14bf134f54a6e993fe6ca6e063c0, type: 3}
  m_PrefabInternal: {fileID: 1812994960}
  m_GameObject: {fileID: 9864409}
  m_LocalRotation: {x: 0.000000035312798, y: 0.0000000014167345, z: -0.2779434, w: 0.96059746}
  m_LocalPosition: {x: -0.044976626, y: -0.00000001525879, z: 0}
  m_LocalScale: {x: 1, y: 1, z: 1}
  m_Children:
  - {fileID: 1711278486}
  m_Father: {fileID: 1790755335}
  m_RootOrder: 0
  m_LocalEulerAnglesHint: {x: 0, y: 0, z: 0}
--- !u!4 &28065680
Transform:
  m_ObjectHideFlags: 0
  m_PrefabParentObject: {fileID: 400028, guid: 959d14bf134f54a6e993fe6ca6e063c0, type: 3}
  m_PrefabInternal: {fileID: 1812994960}
  m_GameObject: {fileID: 1948045593}
  m_LocalRotation: {x: -2.2306051e-10, y: -0.000000001906969, z: 0.12818292, w: 0.99175054}
  m_LocalPosition: {x: -0.42230672, y: 0, z: 0}
  m_LocalScale: {x: 1, y: 1, z: 0.99999994}
  m_Children:
  - {fileID: 471072618}
  m_Father: {fileID: 153220232}
  m_RootOrder: 0
  m_LocalEulerAnglesHint: {x: 0, y: 0, z: 0}
--- !u!1 &82646848
GameObject:
  m_ObjectHideFlags: 0
  m_PrefabParentObject: {fileID: 100084, guid: 959d14bf134f54a6e993fe6ca6e063c0, type: 3}
  m_PrefabInternal: {fileID: 1812994960}
  serializedVersion: 5
  m_Component:
  - component: {fileID: 82646849}
  m_Layer: 0
  m_Name: BipDummy L Finger41
  m_TagString: Untagged
  m_Icon: {fileID: 0}
  m_NavMeshLayer: 0
  m_StaticEditorFlags: 0
  m_IsActive: 1
--- !u!4 &82646849
Transform:
  m_ObjectHideFlags: 0
  m_PrefabParentObject: {fileID: 400084, guid: 959d14bf134f54a6e993fe6ca6e063c0, type: 3}
  m_PrefabInternal: {fileID: 1812994960}
  m_GameObject: {fileID: 82646848}
  m_LocalRotation: {x: -0.000000027031515, y: 0.0000000021954984, z: -0.35165805,
    w: 0.93612856}
  m_LocalPosition: {x: -0.03212024, y: -0.00000003051758, z: -0.000000045776368}
  m_LocalScale: {x: 0.99999994, y: 0.99999976, z: 1}
  m_Children:
  - {fileID: 482218726}
  m_Father: {fileID: 1908822325}
  m_RootOrder: 0
  m_LocalEulerAnglesHint: {x: 0, y: 0, z: 0}
--- !u!1 &89900740
GameObject:
  m_ObjectHideFlags: 0
  m_PrefabParentObject: {fileID: 100006, guid: 959d14bf134f54a6e993fe6ca6e063c0, type: 3}
  m_PrefabInternal: {fileID: 1812994960}
  serializedVersion: 5
  m_Component:
  - component: {fileID: 89900741}
  m_Layer: 0
  m_Name: Bip002 L Finger0
  m_TagString: Untagged
  m_Icon: {fileID: 0}
  m_NavMeshLayer: 0
  m_StaticEditorFlags: 0
  m_IsActive: 1
--- !u!4 &89900741
Transform:
  m_ObjectHideFlags: 0
  m_PrefabParentObject: {fileID: 400006, guid: 959d14bf134f54a6e993fe6ca6e063c0, type: 3}
  m_PrefabInternal: {fileID: 1812994960}
  m_GameObject: {fileID: 89900740}
  m_LocalRotation: {x: 0.40023914, y: -0.27571434, z: 0.056018174, w: 0.87215376}
  m_LocalPosition: {x: -0.042638857, y: 0.010434205, z: -0.028118744}
  m_LocalScale: {x: 1.0000001, y: 1, z: 0.9999999}
  m_Children:
  - {fileID: 362354638}
  m_Father: {fileID: 1780169371}
  m_RootOrder: 0
  m_LocalEulerAnglesHint: {x: 0, y: 0, z: 0}
--- !u!1 &95669674
GameObject:
  m_ObjectHideFlags: 0
  m_PrefabParentObject: {fileID: 100068, guid: 959d14bf134f54a6e993fe6ca6e063c0, type: 3}
  m_PrefabInternal: {fileID: 1812994960}
  serializedVersion: 5
  m_Component:
  - component: {fileID: 95669675}
  m_Layer: 0
  m_Name: BipDummy L Finger12
  m_TagString: Untagged
  m_Icon: {fileID: 0}
  m_NavMeshLayer: 0
  m_StaticEditorFlags: 0
  m_IsActive: 1
--- !u!4 &95669675
Transform:
  m_ObjectHideFlags: 0
  m_PrefabParentObject: {fileID: 400068, guid: 959d14bf134f54a6e993fe6ca6e063c0, type: 3}
  m_PrefabInternal: {fileID: 1812994960}
  m_GameObject: {fileID: 95669674}
  m_LocalRotation: {x: 0.000000039817607, y: -0.000000012218085, z: -0.117604196,
    w: 0.9930606}
  m_LocalPosition: {x: -0.01876288, y: 0.00000003051758, z: 0}
  m_LocalScale: {x: 1, y: 1.0000001, z: 1}
  m_Children: []
  m_Father: {fileID: 1847581116}
  m_RootOrder: 0
  m_LocalEulerAnglesHint: {x: 0, y: 0, z: 0}
--- !u!1 &136115708
GameObject:
  m_ObjectHideFlags: 0
  m_PrefabParentObject: {fileID: 100004, guid: 959d14bf134f54a6e993fe6ca6e063c0, type: 3}
  m_PrefabInternal: {fileID: 1812994960}
  serializedVersion: 5
  m_Component:
  - component: {fileID: 1398166772}
  m_Layer: 0
  m_Name: Bip002 L Clavicle
  m_TagString: Untagged
  m_Icon: {fileID: 0}
  m_NavMeshLayer: 0
  m_StaticEditorFlags: 0
  m_IsActive: 1
--- !u!1 &151428877
GameObject:
  m_ObjectHideFlags: 0
  m_PrefabParentObject: {fileID: 0}
  m_PrefabInternal: {fileID: 0}
  serializedVersion: 5
  m_Component:
  - component: {fileID: 151428878}
  - component: {fileID: 151428879}
  m_Layer: 0
  m_Name: Aim
  m_TagString: Untagged
  m_Icon: {fileID: 0}
  m_NavMeshLayer: 0
  m_StaticEditorFlags: 0
  m_IsActive: 1
--- !u!4 &151428878
Transform:
  m_ObjectHideFlags: 0
  m_PrefabParentObject: {fileID: 0}
  m_PrefabInternal: {fileID: 0}
  m_GameObject: {fileID: 151428877}
  m_LocalRotation: {x: 0, y: 0, z: 0, w: 1}
  m_LocalPosition: {x: 0, y: 0, z: 0}
  m_LocalScale: {x: 1, y: 1, z: 1}
  m_Children: []
  m_Father: {fileID: 1164592985}
  m_RootOrder: 3
  m_LocalEulerAnglesHint: {x: 0, y: 0, z: 0}
--- !u!114 &151428879
MonoBehaviour:
  m_ObjectHideFlags: 0
  m_PrefabParentObject: {fileID: 0}
  m_PrefabInternal: {fileID: 0}
  m_GameObject: {fileID: 151428877}
  m_Enabled: 1
  m_EditorHideFlags: 0
  m_Script: {fileID: 11500000, guid: 5013856973b27429d937d256dc082f2e, type: 3}
  m_Name: 
  m_EditorClassIdentifier: 
  fixTransforms: 1
  solver:
    IKPosition: {x: 3.0000005, y: 1.3046021, z: 0.011486858}
    IKPositionWeight: 0.5
    root: {fileID: 151428878}
    target: {fileID: 0}
    tolerance: 0
    maxIterations: 4
    useRotationLimits: 0
    XY: 0
    bones:
    - transform: {fileID: 840868519}
      weight: 1
      solverPosition: {x: 0, y: 0, z: 0}
      solverRotation: {x: 0, y: 0, z: 0, w: 1}
      defaultLocalPosition: {x: -0.10531403, y: -0.00008385659, z: -2.3259054e-10}
      defaultLocalRotation: {x: 4.0745185e-14, y: 0, z: -0, w: 1}
      length: 0
      sqrMag: 0
      axis: {x: 0, y: 0, z: 0}
    - transform: {fileID: 1046185463}
      weight: 0.5
      solverPosition: {x: 0, y: 0, z: 0}
      solverRotation: {x: 0, y: 0, z: 0, w: 1}
      defaultLocalPosition: {x: -0.10531482, y: -0.00008385659, z: -2.3258327e-10}
      defaultLocalRotation: {x: -8.096637e-15, y: 0.000000010320556, z: -0.0037209948,
        w: 0.9999931}
      length: 0
      sqrMag: 0
      axis: {x: 0, y: 0, z: 0}
    - transform: {fileID: 1573128451}
      weight: 0.3
      solverPosition: {x: 0, y: 0, z: 0}
      solverRotation: {x: 0, y: 0, z: 0, w: 1}
      defaultLocalPosition: {x: -0.10531482, y: -0.00008385468, z: -2.3258327e-10}
      defaultLocalRotation: {x: -1.1736887e-13, y: 0.000000010320554, z: -0.0037209955,
        w: 0.9999931}
      length: 0
      sqrMag: 0
      axis: {x: 0, y: 0, z: 0}
    transform: {fileID: 1573888311}
    axis: {x: 0, y: 0, z: 1}
    poleAxis: {x: 0, y: 1, z: 0}
    polePosition: {x: -0.00000212863, y: 1.3408234, z: -2.988292}
    poleWeight: 0
    poleTarget: {fileID: 0}
    clampWeight: 0.5
    clampSmoothing: 2
--- !u!4 &153220232
Transform:
  m_ObjectHideFlags: 0
  m_PrefabParentObject: {fileID: 400040, guid: 959d14bf134f54a6e993fe6ca6e063c0, type: 3}
  m_PrefabInternal: {fileID: 1812994960}
  m_GameObject: {fileID: 435446520}
  m_LocalRotation: {x: -0.012553991, y: 0.99988455, z: -0.0005164296, w: -0.008549793}
  m_LocalPosition: {x: 0.09312867, y: -0.0024269181, z: -0.096502244}
  m_LocalScale: {x: 0.99999994, y: 1.0000001, z: 1.0000001}
  m_Children:
  - {fileID: 28065680}
  m_Father: {fileID: 2059687989}
  m_RootOrder: 1
  m_LocalEulerAnglesHint: {x: 0, y: 0, z: 0}
--- !u!1 &173910131
GameObject:
  m_ObjectHideFlags: 0
  m_PrefabParentObject: {fileID: 0}
  m_PrefabInternal: {fileID: 0}
  serializedVersion: 5
  m_Component:
  - component: {fileID: 173910132}
  m_Layer: 0
  m_Name: Pin
  m_TagString: Untagged
  m_Icon: {fileID: 0}
  m_NavMeshLayer: 0
  m_StaticEditorFlags: 0
  m_IsActive: 1
--- !u!4 &173910132
Transform:
  m_ObjectHideFlags: 0
  m_PrefabParentObject: {fileID: 0}
  m_PrefabInternal: {fileID: 0}
  m_GameObject: {fileID: 173910131}
  m_LocalRotation: {x: 0, y: 0, z: 0, w: 1}
  m_LocalPosition: {x: 0, y: 1.5, z: 0.75723606}
  m_LocalScale: {x: 1, y: 1, z: 1}
  m_Children: []
  m_Father: {fileID: 1164592985}
  m_RootOrder: 2
  m_LocalEulerAnglesHint: {x: 0, y: 0, z: 0}
--- !u!1 &177016665
GameObject:
  m_ObjectHideFlags: 0
  m_PrefabParentObject: {fileID: 100088, guid: 959d14bf134f54a6e993fe6ca6e063c0, type: 3}
  m_PrefabInternal: {fileID: 1812994960}
  serializedVersion: 5
  m_Component:
  - component: {fileID: 177016666}
  m_Layer: 0
  m_Name: BipDummy R Finger01
  m_TagString: Untagged
  m_Icon: {fileID: 0}
  m_NavMeshLayer: 0
  m_StaticEditorFlags: 0
  m_IsActive: 1
--- !u!4 &177016666
Transform:
  m_ObjectHideFlags: 0
  m_PrefabParentObject: {fileID: 400088, guid: 959d14bf134f54a6e993fe6ca6e063c0, type: 3}
  m_PrefabInternal: {fileID: 1812994960}
  m_GameObject: {fileID: 177016665}
  m_LocalRotation: {x: -0.0000000054362164, y: 0.0000000012932826, z: -0.23144192,
    w: 0.9728487}
  m_LocalPosition: {x: -0.028966065, y: 0.00000003051758, z: 0}
  m_LocalScale: {x: 1, y: 0.99999994, z: 1}
  m_Children:
  - {fileID: 639947578}
  m_Father: {fileID: 388892664}
  m_RootOrder: 0
  m_LocalEulerAnglesHint: {x: 0, y: 0, z: 0}
--- !u!1 &203977239
GameObject:
  m_ObjectHideFlags: 0
  m_PrefabParentObject: {fileID: 100110, guid: 959d14bf134f54a6e993fe6ca6e063c0, type: 3}
  m_PrefabInternal: {fileID: 1812994960}
  serializedVersion: 5
  m_Component:
  - component: {fileID: 203977240}
  m_Layer: 0
  m_Name: BipDummy R Finger4
  m_TagString: Untagged
  m_Icon: {fileID: 0}
  m_NavMeshLayer: 0
  m_StaticEditorFlags: 0
  m_IsActive: 1
--- !u!4 &203977240
Transform:
  m_ObjectHideFlags: 0
  m_PrefabParentObject: {fileID: 400110, guid: 959d14bf134f54a6e993fe6ca6e063c0, type: 3}
  m_PrefabInternal: {fileID: 1812994960}
  m_GameObject: {fileID: 203977239}
  m_LocalRotation: {x: 0.0007130304, y: -0.0098164985, z: -0.032043967, w: 0.99943805}
  m_LocalPosition: {x: -0.09384656, y: 0.009099671, z: -0.039979525}
  m_LocalScale: {x: 1.0000001, y: 1.0000001, z: 1}
  m_Children:
  - {fileID: 340310913}
  m_Father: {fileID: 490677328}
  m_RootOrder: 4
  m_LocalEulerAnglesHint: {x: 0, y: 0, z: 0}
--- !u!1 &215802724
GameObject:
  m_ObjectHideFlags: 0
  m_PrefabParentObject: {fileID: 100074, guid: 959d14bf134f54a6e993fe6ca6e063c0, type: 3}
  m_PrefabInternal: {fileID: 1812994960}
  serializedVersion: 5
  m_Component:
  - component: {fileID: 215802725}
  m_Layer: 0
  m_Name: BipDummy L Finger22
  m_TagString: Untagged
  m_Icon: {fileID: 0}
  m_NavMeshLayer: 0
  m_StaticEditorFlags: 0
  m_IsActive: 1
--- !u!4 &215802725
Transform:
  m_ObjectHideFlags: 0
  m_PrefabParentObject: {fileID: 400074, guid: 959d14bf134f54a6e993fe6ca6e063c0, type: 3}
  m_PrefabInternal: {fileID: 1812994960}
  m_GameObject: {fileID: 215802724}
  m_LocalRotation: {x: -8.062054e-10, y: -0.000000037430024, z: -0.120907776, w: 0.99266374}
  m_LocalPosition: {x: -0.02357837, y: 0, z: -0.00000001525879}
  m_LocalScale: {x: 1, y: 1.0000001, z: 1}
  m_Children: []
  m_Father: {fileID: 857721959}
  m_RootOrder: 0
  m_LocalEulerAnglesHint: {x: 0, y: 0, z: 0}
--- !u!1 &240932145
GameObject:
  m_ObjectHideFlags: 0
  m_PrefabParentObject: {fileID: 100062, guid: 959d14bf134f54a6e993fe6ca6e063c0, type: 3}
  m_PrefabInternal: {fileID: 1812994960}
  serializedVersion: 5
  m_Component:
  - component: {fileID: 240932146}
  m_Layer: 0
  m_Name: BipDummy L Finger02
  m_TagString: Untagged
  m_Icon: {fileID: 0}
  m_NavMeshLayer: 0
  m_StaticEditorFlags: 0
  m_IsActive: 1
--- !u!4 &240932146
Transform:
  m_ObjectHideFlags: 0
  m_PrefabParentObject: {fileID: 400062, guid: 959d14bf134f54a6e993fe6ca6e063c0, type: 3}
  m_PrefabInternal: {fileID: 1812994960}
  m_GameObject: {fileID: 240932145}
  m_LocalRotation: {x: 0.032045208, y: 0.123279884, z: -0.24952908, w: 0.95995337}
  m_LocalPosition: {x: -0.032908816, y: -0.000000007629395, z: 0.00000003051758}
  m_LocalScale: {x: 0.9999999, y: 0.99999994, z: 1}
  m_Children: []
  m_Father: {fileID: 362354638}
  m_RootOrder: 0
  m_LocalEulerAnglesHint: {x: 0, y: 0, z: 0}
--- !u!4 &298932069
Transform:
  m_ObjectHideFlags: 0
  m_PrefabParentObject: {fileID: 400010, guid: 959d14bf134f54a6e993fe6ca6e063c0, type: 3}
  m_PrefabInternal: {fileID: 1812994960}
  m_GameObject: {fileID: 949660069}
  m_LocalRotation: {x: -0.000000030864356, y: 0.000000021855683, z: 0.28733003, w: 0.9578316}
  m_LocalPosition: {x: -0.2430326, y: 0.00000006103516, z: 0}
  m_LocalScale: {x: 1.0000001, y: 1.0000001, z: 1.0000001}
  m_Children:
  - {fileID: 1780169371}
  m_Father: {fileID: 761361211}
  m_RootOrder: 0
  m_LocalEulerAnglesHint: {x: 0, y: 0, z: 0}
--- !u!1 &340310912
GameObject:
  m_ObjectHideFlags: 0
  m_PrefabParentObject: {fileID: 100112, guid: 959d14bf134f54a6e993fe6ca6e063c0, type: 3}
  m_PrefabInternal: {fileID: 1812994960}
  serializedVersion: 5
  m_Component:
  - component: {fileID: 340310913}
  m_Layer: 0
  m_Name: BipDummy R Finger41
  m_TagString: Untagged
  m_Icon: {fileID: 0}
  m_NavMeshLayer: 0
  m_StaticEditorFlags: 0
  m_IsActive: 1
--- !u!4 &340310913
Transform:
  m_ObjectHideFlags: 0
  m_PrefabParentObject: {fileID: 400112, guid: 959d14bf134f54a6e993fe6ca6e063c0, type: 3}
  m_PrefabInternal: {fileID: 1812994960}
  m_GameObject: {fileID: 340310912}
  m_LocalRotation: {x: 0.0000000024180136, y: 0.0000000028339022, z: -0.6490805, w: 0.7607197}
  m_LocalPosition: {x: -0.032120302, y: 0.00000006103516, z: 0.00000006103516}
  m_LocalScale: {x: 0.9999999, y: 0.99999976, z: 0.99999994}
  m_Children:
  - {fileID: 1284853727}
  m_Father: {fileID: 203977240}
  m_RootOrder: 0
  m_LocalEulerAnglesHint: {x: 0, y: 0, z: 0}
--- !u!1 &340743659
GameObject:
  m_ObjectHideFlags: 0
  m_PrefabParentObject: {fileID: 0}
  m_PrefabInternal: {fileID: 0}
  serializedVersion: 5
  m_Component:
  - component: {fileID: 340743660}
  - component: {fileID: 340743661}
  - component: {fileID: 340743663}
  - component: {fileID: 340743664}
  - component: {fileID: 340743662}
  m_Layer: 0
  m_Name: Main Camera
  m_TagString: MainCamera
  m_Icon: {fileID: 0}
  m_NavMeshLayer: 0
  m_StaticEditorFlags: 0
  m_IsActive: 1
--- !u!4 &340743660
Transform:
  m_ObjectHideFlags: 0
  m_PrefabParentObject: {fileID: 0}
  m_PrefabInternal: {fileID: 0}
  m_GameObject: {fileID: 340743659}
  m_LocalRotation: {x: 0, y: 0.26343757, z: 0, w: 0.96467644}
  m_LocalPosition: {x: -1.1786613, y: 1, z: -2.3442974}
  m_LocalScale: {x: 1, y: 1, z: 1}
  m_Children: []
  m_Father: {fileID: 0}
  m_RootOrder: 4
  m_LocalEulerAnglesHint: {x: 0, y: 0, z: 0}
--- !u!20 &340743661
Camera:
  m_ObjectHideFlags: 0
  m_PrefabParentObject: {fileID: 0}
  m_PrefabInternal: {fileID: 0}
  m_GameObject: {fileID: 340743659}
  m_Enabled: 1
  serializedVersion: 2
  m_ClearFlags: 1
  m_BackGroundColor: {r: 0.27450982, g: 0.27450982, b: 0.27450982, a: 0.019607844}
  m_NormalizedViewPortRect:
    serializedVersion: 2
    x: 0
    y: 0
    width: 1
    height: 1
  near clip plane: 0.3
  far clip plane: 1000
  field of view: 60
  orthographic: 0
  orthographic size: 100
  m_Depth: -1
  m_CullingMask:
    serializedVersion: 2
    m_Bits: 4294967295
  m_RenderingPath: -1
  m_TargetTexture: {fileID: 0}
  m_TargetDisplay: 0
  m_TargetEye: 3
  m_HDR: 0
  m_AllowMSAA: 1
  m_AllowDynamicResolution: 0
  m_ForceIntoRT: 0
  m_OcclusionCulling: 1
  m_StereoConvergence: 10
  m_StereoSeparation: 0.022
--- !u!81 &340743662
AudioListener:
  m_ObjectHideFlags: 0
  m_PrefabParentObject: {fileID: 0}
  m_PrefabInternal: {fileID: 0}
  m_GameObject: {fileID: 340743659}
  m_Enabled: 1
--- !u!92 &340743663
Behaviour:
  m_ObjectHideFlags: 0
  m_PrefabParentObject: {fileID: 0}
  m_PrefabInternal: {fileID: 0}
  m_GameObject: {fileID: 340743659}
  m_Enabled: 1
--- !u!124 &340743664
Behaviour:
  m_ObjectHideFlags: 0
  m_PrefabParentObject: {fileID: 0}
  m_PrefabInternal: {fileID: 0}
  m_GameObject: {fileID: 340743659}
  m_Enabled: 1
--- !u!1 &362354637
GameObject:
  m_ObjectHideFlags: 0
  m_PrefabParentObject: {fileID: 100060, guid: 959d14bf134f54a6e993fe6ca6e063c0, type: 3}
  m_PrefabInternal: {fileID: 1812994960}
  serializedVersion: 5
  m_Component:
  - component: {fileID: 362354638}
  m_Layer: 0
  m_Name: BipDummy L Finger01
  m_TagString: Untagged
  m_Icon: {fileID: 0}
  m_NavMeshLayer: 0
  m_StaticEditorFlags: 0
  m_IsActive: 1
--- !u!4 &362354638
Transform:
  m_ObjectHideFlags: 0
  m_PrefabParentObject: {fileID: 400060, guid: 959d14bf134f54a6e993fe6ca6e063c0, type: 3}
  m_PrefabInternal: {fileID: 1812994960}
  m_GameObject: {fileID: 362354637}
  m_LocalRotation: {x: 0, y: 0, z: -0.24637195, w: 0.9691754}
  m_LocalPosition: {x: -0.028966127, y: 0, z: -0.00000003051758}
  m_LocalScale: {x: 1.0000001, y: 1.0000001, z: 1}
  m_Children:
  - {fileID: 240932146}
  m_Father: {fileID: 89900741}
  m_RootOrder: 0
  m_LocalEulerAnglesHint: {x: 0, y: 0, z: 0}
--- !u!1 &379702077
GameObject:
  m_ObjectHideFlags: 0
  m_PrefabParentObject: {fileID: 100052, guid: 959d14bf134f54a6e993fe6ca6e063c0, type: 3}
  m_PrefabInternal: {fileID: 1812994960}
  serializedVersion: 5
  m_Component:
  - component: {fileID: 840868519}
  m_Layer: 0
  m_Name: Bip002 Spine1
  m_TagString: Untagged
  m_Icon: {fileID: 0}
  m_NavMeshLayer: 0
  m_StaticEditorFlags: 0
  m_IsActive: 1
--- !u!1 &388892663
GameObject:
  m_ObjectHideFlags: 0
  m_PrefabParentObject: {fileID: 100032, guid: 959d14bf134f54a6e993fe6ca6e063c0, type: 3}
  m_PrefabInternal: {fileID: 1812994960}
  serializedVersion: 5
  m_Component:
  - component: {fileID: 388892664}
  m_Layer: 0
  m_Name: Bip002 R Finger0
  m_TagString: Untagged
  m_Icon: {fileID: 0}
  m_NavMeshLayer: 0
  m_StaticEditorFlags: 0
  m_IsActive: 1
--- !u!4 &388892664
Transform:
  m_ObjectHideFlags: 0
  m_PrefabParentObject: {fileID: 400032, guid: 959d14bf134f54a6e993fe6ca6e063c0, type: 3}
  m_PrefabInternal: {fileID: 1812994960}
  m_GameObject: {fileID: 388892663}
  m_LocalRotation: {x: -0.4061612, y: 0.2668805, z: 0.03686745, w: 0.8731831}
  m_LocalPosition: {x: -0.04263898, y: 0.010434327, z: 0.0281187}
  m_LocalScale: {x: 1.0000001, y: 1, z: 0.9999999}
  m_Children:
  - {fileID: 177016666}
  m_Father: {fileID: 490677328}
  m_RootOrder: 0
  m_LocalEulerAnglesHint: {x: 0, y: 0, z: 0}
--- !u!1 &425731439
GameObject:
  m_ObjectHideFlags: 0
  m_PrefabParentObject: {fileID: 100038, guid: 959d14bf134f54a6e993fe6ca6e063c0, type: 3}
  m_PrefabInternal: {fileID: 1812994960}
  serializedVersion: 5
  m_Component:
  - component: {fileID: 490677328}
  m_Layer: 0
  m_Name: Bip002 R Hand
  m_TagString: Untagged
  m_Icon: {fileID: 0}
  m_NavMeshLayer: 0
  m_StaticEditorFlags: 0
  m_IsActive: 1
--- !u!1 &433946721
GameObject:
  m_ObjectHideFlags: 0
  m_PrefabParentObject: {fileID: 100036, guid: 959d14bf134f54a6e993fe6ca6e063c0, type: 3}
  m_PrefabInternal: {fileID: 1812994960}
  serializedVersion: 5
  m_Component:
  - component: {fileID: 1573784574}
  m_Layer: 0
  m_Name: Bip002 R Forearm
  m_TagString: Untagged
  m_Icon: {fileID: 0}
  m_NavMeshLayer: 0
  m_StaticEditorFlags: 0
  m_IsActive: 1
--- !u!1 &435446520
GameObject:
  m_ObjectHideFlags: 0
  m_PrefabParentObject: {fileID: 100040, guid: 959d14bf134f54a6e993fe6ca6e063c0, type: 3}
  m_PrefabInternal: {fileID: 1812994960}
  serializedVersion: 5
  m_Component:
  - component: {fileID: 153220232}
  m_Layer: 0
  m_Name: Bip002 R Thigh
  m_TagString: Untagged
  m_Icon: {fileID: 0}
  m_NavMeshLayer: 0
  m_StaticEditorFlags: 0
  m_IsActive: 1
--- !u!1 &460922934
GameObject:
  m_ObjectHideFlags: 0
  m_PrefabParentObject: {fileID: 100042, guid: 959d14bf134f54a6e993fe6ca6e063c0, type: 3}
  m_PrefabInternal: {fileID: 1812994960}
  serializedVersion: 5
  m_Component:
  - component: {fileID: 460922935}
  m_Layer: 0
  m_Name: Bip002 R Toe0
  m_TagString: Untagged
  m_Icon: {fileID: 0}
  m_NavMeshLayer: 0
  m_StaticEditorFlags: 0
  m_IsActive: 1
--- !u!4 &460922935
Transform:
  m_ObjectHideFlags: 0
  m_PrefabParentObject: {fileID: 400042, guid: 959d14bf134f54a6e993fe6ca6e063c0, type: 3}
  m_PrefabInternal: {fileID: 1812994960}
  m_GameObject: {fileID: 460922934}
  m_LocalRotation: {x: -0.000000015454312, y: 0.000000015454312, z: -0.7071068, w: 0.7071068}
  m_LocalPosition: {x: -0.06716837, y: 0.13374838, z: 0}
  m_LocalScale: {x: 1, y: 1, z: 1}
  m_Children:
  - {fileID: 1984129243}
  m_Father: {fileID: 471072618}
  m_RootOrder: 0
  m_LocalEulerAnglesHint: {x: 0, y: 0, z: 0}
--- !u!4 &471072618
Transform:
  m_ObjectHideFlags: 0
  m_PrefabParentObject: {fileID: 400034, guid: 959d14bf134f54a6e993fe6ca6e063c0, type: 3}
  m_PrefabInternal: {fileID: 1812994960}
  m_GameObject: {fileID: 2034967947}
  m_LocalRotation: {x: 0.045867775, y: -0.013275983, z: -0.10180175, w: 0.99365807}
  m_LocalPosition: {x: -0.41098925, y: -0.000000007629395, z: 0}
  m_LocalScale: {x: 1, y: 0.99999994, z: 0.99999994}
  m_Children:
  - {fileID: 460922935}
  m_Father: {fileID: 28065680}
  m_RootOrder: 0
  m_LocalEulerAnglesHint: {x: 0, y: 0, z: 0}
--- !u!4 &473012038
Transform:
  m_ObjectHideFlags: 0
  m_PrefabParentObject: {fileID: 400048, guid: 959d14bf134f54a6e993fe6ca6e063c0, type: 3}
  m_PrefabInternal: {fileID: 1812994960}
  m_GameObject: {fileID: 2068362180}
  m_LocalRotation: {x: -0.39572957, y: 0.43531126, z: 0.033003364, w: 0.80796844}
  m_LocalPosition: {x: -0.17969485, y: 9.536744e-10, z: 0}
  m_LocalScale: {x: 1.0000001, y: 1.0000001, z: 1}
  m_Children:
  - {fileID: 1573784574}
  m_Father: {fileID: 557408046}
  m_RootOrder: 0
  m_LocalEulerAnglesHint: {x: 0, y: 0, z: 0}
--- !u!1 &482218725
GameObject:
  m_ObjectHideFlags: 0
  m_PrefabParentObject: {fileID: 100086, guid: 959d14bf134f54a6e993fe6ca6e063c0, type: 3}
  m_PrefabInternal: {fileID: 1812994960}
  serializedVersion: 5
  m_Component:
  - component: {fileID: 482218726}
  m_Layer: 0
  m_Name: BipDummy L Finger42
  m_TagString: Untagged
  m_Icon: {fileID: 0}
  m_NavMeshLayer: 0
  m_StaticEditorFlags: 0
  m_IsActive: 1
--- !u!4 &482218726
Transform:
  m_ObjectHideFlags: 0
  m_PrefabParentObject: {fileID: 400086, guid: 959d14bf134f54a6e993fe6ca6e063c0, type: 3}
  m_PrefabInternal: {fileID: 1812994960}
  m_GameObject: {fileID: 482218725}
  m_LocalRotation: {x: 0.00000001644754, y: 0.00000001808565, z: -0.41532043, w: 0.90967524}
  m_LocalPosition: {x: -0.01889612, y: 0, z: 0.000000045776368}
  m_LocalScale: {x: 1, y: 1.0000001, z: 1}
  m_Children: []
  m_Father: {fileID: 82646849}
  m_RootOrder: 0
  m_LocalEulerAnglesHint: {x: 0, y: 0, z: 0}
--- !u!4 &490677328
Transform:
  m_ObjectHideFlags: 0
  m_PrefabParentObject: {fileID: 400038, guid: 959d14bf134f54a6e993fe6ca6e063c0, type: 3}
  m_PrefabInternal: {fileID: 1812994960}
  m_GameObject: {fileID: 425731439}
  m_LocalRotation: {x: 0.72127545, y: 0.08105711, z: 0.07682161, w: 0.68358606}
  m_LocalPosition: {x: -0.2430326, y: 0.00000003051758, z: -0.00000006103516}
  m_LocalScale: {x: 0.99999994, y: 1, z: 0.99999994}
  m_Children:
  - {fileID: 388892664}
  - {fileID: 704944270}
  - {fileID: 1790755335}
  - {fileID: 704081527}
  - {fileID: 203977240}
  m_Father: {fileID: 1573784574}
  m_RootOrder: 0
  m_LocalEulerAnglesHint: {x: 0, y: 0, z: 0}
--- !u!1 &511735752
GameObject:
  m_ObjectHideFlags: 0
  m_PrefabParentObject: {fileID: 100094, guid: 959d14bf134f54a6e993fe6ca6e063c0, type: 3}
  m_PrefabInternal: {fileID: 1812994960}
  serializedVersion: 5
  m_Component:
  - component: {fileID: 511735753}
  m_Layer: 0
  m_Name: BipDummy R Finger11
  m_TagString: Untagged
  m_Icon: {fileID: 0}
  m_NavMeshLayer: 0
  m_StaticEditorFlags: 0
  m_IsActive: 1
--- !u!4 &511735753
Transform:
  m_ObjectHideFlags: 0
  m_PrefabParentObject: {fileID: 400094, guid: 959d14bf134f54a6e993fe6ca6e063c0, type: 3}
  m_PrefabInternal: {fileID: 1812994960}
  m_GameObject: {fileID: 511735752}
  m_LocalRotation: {x: 0.000000001861105, y: -7.57366e-11, z: -0.040660772, w: 0.99917305}
  m_LocalPosition: {x: -0.047266603, y: 0.00000001525879, z: -0.00000001525879}
  m_LocalScale: {x: 0.99999994, y: 0.99999994, z: 0.99999994}
  m_Children:
  - {fileID: 2016056826}
  m_Father: {fileID: 704944270}
  m_RootOrder: 0
  m_LocalEulerAnglesHint: {x: 0, y: 0, z: 0}
--- !u!1 &515836397
GameObject:
  m_ObjectHideFlags: 0
  m_PrefabParentObject: {fileID: 100108, guid: 959d14bf134f54a6e993fe6ca6e063c0, type: 3}
  m_PrefabInternal: {fileID: 1812994960}
  serializedVersion: 5
  m_Component:
  - component: {fileID: 515836398}
  m_Layer: 0
  m_Name: BipDummy R Finger32
  m_TagString: Untagged
  m_Icon: {fileID: 0}
  m_NavMeshLayer: 0
  m_StaticEditorFlags: 0
  m_IsActive: 1
--- !u!4 &515836398
Transform:
  m_ObjectHideFlags: 0
  m_PrefabParentObject: {fileID: 400108, guid: 959d14bf134f54a6e993fe6ca6e063c0, type: 3}
  m_PrefabInternal: {fileID: 1812994960}
  m_GameObject: {fileID: 515836397}
  m_LocalRotation: {x: 0.000000014849564, y: -0.0000000022370685, z: -0.27046826,
    w: 0.9627289}
  m_LocalPosition: {x: -0.02278583, y: 0, z: -0.00000001525879}
  m_LocalScale: {x: 1, y: 1, z: 1}
  m_Children: []
  m_Father: {fileID: 2024951388}
  m_RootOrder: 0
  m_LocalEulerAnglesHint: {x: 0, y: 0, z: 0}
--- !u!4 &557408046
Transform:
  m_ObjectHideFlags: 0
  m_PrefabParentObject: {fileID: 400030, guid: 959d14bf134f54a6e993fe6ca6e063c0, type: 3}
  m_PrefabInternal: {fileID: 1812994960}
  m_GameObject: {fileID: 1428628948}
  m_LocalRotation: {x: 0.69003195, y: 0.10505109, z: 0.7079571, w: -0.10778195}
  m_LocalPosition: {x: -0, y: 0.0001090088, z: -0.028353818}
  m_LocalScale: {x: 1, y: 1, z: 1}
  m_Children:
  - {fileID: 473012038}
  m_Father: {fileID: 1802368131}
  m_RootOrder: 2
  m_LocalEulerAnglesHint: {x: 0, y: 0, z: 0}
--- !u!1 &590234850
GameObject:
  m_ObjectHideFlags: 0
  m_PrefabParentObject: {fileID: 100064, guid: 959d14bf134f54a6e993fe6ca6e063c0, type: 3}
  m_PrefabInternal: {fileID: 1812994960}
  serializedVersion: 5
  m_Component:
  - component: {fileID: 590234851}
  m_Layer: 0
  m_Name: BipDummy L Finger1
  m_TagString: Untagged
  m_Icon: {fileID: 0}
  m_NavMeshLayer: 0
  m_StaticEditorFlags: 0
  m_IsActive: 1
--- !u!4 &590234851
Transform:
  m_ObjectHideFlags: 0
  m_PrefabParentObject: {fileID: 400064, guid: 959d14bf134f54a6e993fe6ca6e063c0, type: 3}
  m_PrefabInternal: {fileID: 1812994960}
  m_GameObject: {fileID: 590234850}
  m_LocalRotation: {x: -0.00039683317, y: -0.00003227424, z: -0.081061095, w: 0.99670905}
  m_LocalPosition: {x: -0.1003982, y: -0.003286377, z: -0.022277009}
  m_LocalScale: {x: 1, y: 0.99999994, z: 0.99999994}
  m_Children:
  - {fileID: 1847581116}
  m_Father: {fileID: 1780169371}
  m_RootOrder: 1
  m_LocalEulerAnglesHint: {x: 0, y: 0, z: 0}
--- !u!1 &594215009
GameObject:
  m_ObjectHideFlags: 0
  m_PrefabParentObject: {fileID: 100078, guid: 959d14bf134f54a6e993fe6ca6e063c0, type: 3}
  m_PrefabInternal: {fileID: 1812994960}
  serializedVersion: 5
  m_Component:
  - component: {fileID: 594215010}
  m_Layer: 0
  m_Name: BipDummy L Finger31
  m_TagString: Untagged
  m_Icon: {fileID: 0}
  m_NavMeshLayer: 0
  m_StaticEditorFlags: 0
  m_IsActive: 1
--- !u!4 &594215010
Transform:
  m_ObjectHideFlags: 0
  m_PrefabParentObject: {fileID: 400078, guid: 959d14bf134f54a6e993fe6ca6e063c0, type: 3}
  m_PrefabInternal: {fileID: 1812994960}
  m_GameObject: {fileID: 594215009}
  m_LocalRotation: {x: 0.0000000026053375, y: -0.0000000045790607, z: -0.26490858,
    w: 0.9642736}
  m_LocalPosition: {x: -0.040773623, y: 0.00000003051758, z: 0.00000001525879}
  m_LocalScale: {x: 1, y: 1.0000001, z: 1.0000001}
  m_Children:
  - {fileID: 1328421468}
  m_Father: {fileID: 1339049052}
  m_RootOrder: 0
  m_LocalEulerAnglesHint: {x: 0, y: 0, z: 0}
--- !u!1 &639947577
GameObject:
  m_ObjectHideFlags: 0
  m_PrefabParentObject: {fileID: 100090, guid: 959d14bf134f54a6e993fe6ca6e063c0, type: 3}
  m_PrefabInternal: {fileID: 1812994960}
  serializedVersion: 5
  m_Component:
  - component: {fileID: 639947578}
  m_Layer: 0
  m_Name: BipDummy R Finger02
  m_TagString: Untagged
  m_Icon: {fileID: 0}
  m_NavMeshLayer: 0
  m_StaticEditorFlags: 0
  m_IsActive: 1
--- !u!4 &639947578
Transform:
  m_ObjectHideFlags: 0
  m_PrefabParentObject: {fileID: 400090, guid: 959d14bf134f54a6e993fe6ca6e063c0, type: 3}
  m_PrefabInternal: {fileID: 1812994960}
  m_GameObject: {fileID: 639947577}
  m_LocalRotation: {x: -0.0051727896, y: -0.14755645, z: -0.23301202, w: 0.9612002}
  m_LocalPosition: {x: -0.032908753, y: -0.000000007629395, z: -0.00000003051758}
  m_LocalScale: {x: 1.0000001, y: 1.0000001, z: 1.0000001}
  m_Children: []
  m_Father: {fileID: 177016666}
  m_RootOrder: 0
  m_LocalEulerAnglesHint: {x: 0, y: 0, z: 0}
--- !u!1 &701228305
GameObject:
  m_ObjectHideFlags: 0
  m_PrefabParentObject: {fileID: 100056, guid: 959d14bf134f54a6e993fe6ca6e063c0, type: 3}
  m_PrefabInternal: {fileID: 1812994960}
  serializedVersion: 5
  m_Component:
  - component: {fileID: 1573128451}
  m_Layer: 0
  m_Name: Bip002 Spine3
  m_TagString: Untagged
  m_Icon: {fileID: 0}
  m_NavMeshLayer: 0
  m_StaticEditorFlags: 0
  m_IsActive: 1
--- !u!1 &704081526
GameObject:
  m_ObjectHideFlags: 0
  m_PrefabParentObject: {fileID: 100104, guid: 959d14bf134f54a6e993fe6ca6e063c0, type: 3}
  m_PrefabInternal: {fileID: 1812994960}
  serializedVersion: 5
  m_Component:
  - component: {fileID: 704081527}
  m_Layer: 0
  m_Name: BipDummy R Finger3
  m_TagString: Untagged
  m_Icon: {fileID: 0}
  m_NavMeshLayer: 0
  m_StaticEditorFlags: 0
  m_IsActive: 1
--- !u!4 &704081527
Transform:
  m_ObjectHideFlags: 0
  m_PrefabParentObject: {fileID: 400104, guid: 959d14bf134f54a6e993fe6ca6e063c0, type: 3}
  m_PrefabInternal: {fileID: 1812994960}
  m_GameObject: {fileID: 704081526}
  m_LocalRotation: {x: 0.0022173636, y: -0.0136231445, z: -0.13210824, w: 0.99113923}
  m_LocalPosition: {x: -0.10328601, y: 0.0010224, z: -0.020135256}
  m_LocalScale: {x: 1, y: 1, z: 1.0000001}
  m_Children:
  - {fileID: 2024951388}
  m_Father: {fileID: 490677328}
  m_RootOrder: 3
  m_LocalEulerAnglesHint: {x: 0, y: 0, z: 0}
--- !u!1 &704944269
GameObject:
  m_ObjectHideFlags: 0
  m_PrefabParentObject: {fileID: 100092, guid: 959d14bf134f54a6e993fe6ca6e063c0, type: 3}
  m_PrefabInternal: {fileID: 1812994960}
  serializedVersion: 5
  m_Component:
  - component: {fileID: 704944270}
  m_Layer: 0
  m_Name: BipDummy R Finger1
  m_TagString: Untagged
  m_Icon: {fileID: 0}
  m_NavMeshLayer: 0
  m_StaticEditorFlags: 0
  m_IsActive: 1
--- !u!4 &704944270
Transform:
  m_ObjectHideFlags: 0
  m_PrefabParentObject: {fileID: 400092, guid: 959d14bf134f54a6e993fe6ca6e063c0, type: 3}
  m_PrefabInternal: {fileID: 1812994960}
  m_GameObject: {fileID: 704944269}
  m_LocalRotation: {x: 0.00039008295, y: 0.000079733094, z: -0.20024739, w: 0.97974527}
  m_LocalPosition: {x: -0.1003982, y: -0.003286316, z: 0.022276932}
  m_LocalScale: {x: 1, y: 1, z: 1.0000001}
  m_Children:
  - {fileID: 511735753}
  m_Father: {fileID: 490677328}
  m_RootOrder: 1
  m_LocalEulerAnglesHint: {x: 0, y: 0, z: 0}
--- !u!1 &736059186
GameObject:
  m_ObjectHideFlags: 0
  m_PrefabParentObject: {fileID: 100026, guid: 959d14bf134f54a6e993fe6ca6e063c0, type: 3}
  m_PrefabInternal: {fileID: 1812994960}
  serializedVersion: 5
  m_Component:
  - component: {fileID: 1888601033}
  m_Layer: 0
  m_Name: Bip002 Pelvis
  m_TagString: Untagged
  m_Icon: {fileID: 0}
  m_NavMeshLayer: 0
  m_StaticEditorFlags: 0
  m_IsActive: 1
--- !u!4 &761361211
Transform:
  m_ObjectHideFlags: 0
  m_PrefabParentObject: {fileID: 400022, guid: 959d14bf134f54a6e993fe6ca6e063c0, type: 3}
  m_PrefabInternal: {fileID: 1812994960}
  m_GameObject: {fileID: 1700853252}
  m_LocalRotation: {x: 0.39572874, y: -0.43531165, z: 0.033002764, w: 0.80796874}
  m_LocalPosition: {x: -0.17969485, y: 9.536744e-10, z: 0}
  m_LocalScale: {x: 1.0000001, y: 1.0000001, z: 1}
  m_Children:
  - {fileID: 298932069}
  m_Father: {fileID: 1398166772}
  m_RootOrder: 0
  m_LocalEulerAnglesHint: {x: 0, y: 0, z: 0}
--- !u!1 &770492407
GameObject:
  m_ObjectHideFlags: 0
  m_PrefabParentObject: {fileID: 0}
  m_PrefabInternal: {fileID: 0}
  serializedVersion: 5
  m_Component:
  - component: {fileID: 770492410}
  - component: {fileID: 770492409}
  - component: {fileID: 770492408}
  m_Layer: 0
  m_Name: Instructions
  m_TagString: Untagged
  m_Icon: {fileID: 0}
  m_NavMeshLayer: 0
  m_StaticEditorFlags: 0
  m_IsActive: 1
--- !u!102 &770492408
TextMesh:
  serializedVersion: 3
  m_ObjectHideFlags: 0
  m_PrefabParentObject: {fileID: 0}
  m_PrefabInternal: {fileID: 0}
  m_GameObject: {fileID: 770492407}
  m_Text: Hit Play, move the Punch Target around. Then see the FBIKBoxing script on
    the Dummy to see how things work
  m_OffsetZ: 0
  m_CharacterSize: 1
  m_LineSpacing: 1
  m_Anchor: 0
  m_Alignment: 0
  m_TabSize: 4
  m_FontSize: 0
  m_FontStyle: 0
  m_RichText: 1
  m_Font: {fileID: 10102, guid: 0000000000000000e000000000000000, type: 0}
  m_Color:
    serializedVersion: 2
    rgba: 4294967295
--- !u!23 &770492409
MeshRenderer:
  m_ObjectHideFlags: 0
  m_PrefabParentObject: {fileID: 0}
  m_PrefabInternal: {fileID: 0}
  m_GameObject: {fileID: 770492407}
  m_Enabled: 1
  m_CastShadows: 1
  m_ReceiveShadows: 1
  m_DynamicOccludee: 1
  m_MotionVectors: 1
  m_LightProbeUsage: 0
  m_ReflectionProbeUsage: 1
  m_Materials:
  - {fileID: 10100, guid: 0000000000000000e000000000000000, type: 0}
  m_StaticBatchInfo:
    firstSubMesh: 0
    subMeshCount: 0
  m_StaticBatchRoot: {fileID: 0}
  m_ProbeAnchor: {fileID: 0}
  m_LightProbeVolumeOverride: {fileID: 0}
  m_ScaleInLightmap: 1
  m_PreserveUVs: 0
  m_IgnoreNormalsForChartDetection: 0
  m_ImportantGI: 0
  m_StitchLightmapSeams: 0
  m_SelectedEditorRenderState: 3
  m_MinimumChartSize: 4
  m_AutoUVMaxDistance: 0.5
  m_AutoUVMaxAngle: 89
  m_LightmapParameters: {fileID: 0}
  m_SortingLayerID: 0
  m_SortingLayer: 0
  m_SortingOrder: 0
--- !u!4 &770492410
Transform:
  m_ObjectHideFlags: 0
  m_PrefabParentObject: {fileID: 0}
  m_PrefabInternal: {fileID: 0}
  m_GameObject: {fileID: 770492407}
  m_LocalRotation: {x: 0, y: 0, z: 0, w: 1}
  m_LocalPosition: {x: -3.6165826, y: 2.6081755, z: -0.3452302}
  m_LocalScale: {x: 0.17696708, y: 0.17696708, z: 0.17696708}
  m_Children: []
  m_Father: {fileID: 0}
  m_RootOrder: 3
  m_LocalEulerAnglesHint: {x: 0, y: 0, z: 0}
--- !u!4 &840868519
Transform:
  m_ObjectHideFlags: 0
  m_PrefabParentObject: {fileID: 400052, guid: 959d14bf134f54a6e993fe6ca6e063c0, type: 3}
  m_PrefabInternal: {fileID: 1812994960}
  m_GameObject: {fileID: 379702077}
  m_LocalRotation: {x: 4.0745185e-14, y: 0, z: -0, w: 1}
  m_LocalPosition: {x: -0.10531403, y: -0.00008385659, z: -2.3259054e-10}
  m_LocalScale: {x: 1, y: 1, z: 1}
  m_Children:
  - {fileID: 1046185463}
  m_Father: {fileID: 2059687989}
  m_RootOrder: 2
  m_LocalEulerAnglesHint: {x: 0, y: 0, z: 0}
--- !u!1 &857721958
GameObject:
  m_ObjectHideFlags: 0
  m_PrefabParentObject: {fileID: 100072, guid: 959d14bf134f54a6e993fe6ca6e063c0, type: 3}
  m_PrefabInternal: {fileID: 1812994960}
  serializedVersion: 5
  m_Component:
  - component: {fileID: 857721959}
  m_Layer: 0
  m_Name: BipDummy L Finger21
  m_TagString: Untagged
  m_Icon: {fileID: 0}
  m_NavMeshLayer: 0
  m_StaticEditorFlags: 0
  m_IsActive: 1
--- !u!4 &857721959
Transform:
  m_ObjectHideFlags: 0
  m_PrefabParentObject: {fileID: 400072, guid: 959d14bf134f54a6e993fe6ca6e063c0, type: 3}
  m_PrefabInternal: {fileID: 1812994960}
  m_GameObject: {fileID: 857721958}
  m_LocalRotation: {x: 0.000000026105285, y: 0.000000005454415, z: -0.22450191, w: 0.97447366}
  m_LocalPosition: {x: -0.044976626, y: 0, z: 0}
  m_LocalScale: {x: 1, y: 1, z: 1.0000001}
  m_Children:
  - {fileID: 215802725}
  m_Father: {fileID: 1208793709}
  m_RootOrder: 0
  m_LocalEulerAnglesHint: {x: 0, y: 0, z: 0}
--- !u!1 &900617695
GameObject:
  m_ObjectHideFlags: 0
  m_PrefabParentObject: {fileID: 100116, guid: 959d14bf134f54a6e993fe6ca6e063c0, type: 3}
  m_PrefabInternal: {fileID: 1812994960}
  serializedVersion: 5
  m_Component:
  - component: {fileID: 900617696}
  - component: {fileID: 900617697}
  m_Layer: 0
  m_Name: Dummy
  m_TagString: Untagged
  m_Icon: {fileID: 0}
  m_NavMeshLayer: 0
  m_StaticEditorFlags: 0
  m_IsActive: 1
--- !u!4 &900617696
Transform:
  m_ObjectHideFlags: 0
  m_PrefabParentObject: {fileID: 400116, guid: 959d14bf134f54a6e993fe6ca6e063c0, type: 3}
  m_PrefabInternal: {fileID: 1812994960}
  m_GameObject: {fileID: 900617695}
  m_LocalRotation: {x: 0.000000021855694, y: 0, z: -0, w: 1}
  m_LocalPosition: {x: -0, y: 0, z: 0}
  m_LocalScale: {x: 1.9103826, y: 1.9103826, z: 1.9103826}
  m_Children: []
  m_Father: {fileID: 1164592985}
  m_RootOrder: 1
  m_LocalEulerAnglesHint: {x: 0, y: 0, z: 0}
--- !u!137 &900617697
SkinnedMeshRenderer:
  m_ObjectHideFlags: 0
  m_PrefabParentObject: {fileID: 13700000, guid: 959d14bf134f54a6e993fe6ca6e063c0,
    type: 3}
  m_PrefabInternal: {fileID: 1812994960}
  m_GameObject: {fileID: 900617695}
  m_Enabled: 1
  m_CastShadows: 1
  m_ReceiveShadows: 1
  m_DynamicOccludee: 1
  m_MotionVectors: 1
  m_LightProbeUsage: 1
  m_ReflectionProbeUsage: 1
  m_Materials:
  - {fileID: 2100000, guid: 8a758f41de96147d29c0b9d92ce2a3c5, type: 2}
  m_StaticBatchInfo:
    firstSubMesh: 0
    subMeshCount: 0
  m_StaticBatchRoot: {fileID: 0}
  m_ProbeAnchor: {fileID: 0}
  m_LightProbeVolumeOverride: {fileID: 0}
  m_ScaleInLightmap: 1
  m_PreserveUVs: 0
  m_IgnoreNormalsForChartDetection: 0
  m_ImportantGI: 0
  m_StitchLightmapSeams: 0
  m_SelectedEditorRenderState: 3
  m_MinimumChartSize: 4
  m_AutoUVMaxDistance: 0.5
  m_AutoUVMaxAngle: 89
  m_LightmapParameters: {fileID: 0}
  m_SortingLayerID: 0
  m_SortingLayer: 0
  m_SortingOrder: 0
  serializedVersion: 2
  m_Quality: 0
  m_UpdateWhenOffscreen: 0
  m_SkinnedMotionVectors: 1
  m_Mesh: {fileID: 4300000, guid: 959d14bf134f54a6e993fe6ca6e063c0, type: 3}
  m_Bones:
  - {fileID: 1305818814}
  - {fileID: 1888601033}
  - {fileID: 2059687989}
  - {fileID: 1515182577}
  - {fileID: 153220232}
  - {fileID: 1398166772}
  - {fileID: 761361211}
  - {fileID: 1046185463}
  - {fileID: 1573128451}
  - {fileID: 1802368131}
  - {fileID: 1063608585}
  - {fileID: 557408046}
  - {fileID: 298932069}
  - {fileID: 473012038}
  - {fileID: 1573784574}
  - {fileID: 840868519}
  - {fileID: 1546539924}
  - {fileID: 2085160386}
  - {fileID: 471072618}
  - {fileID: 2040470159}
  - {fileID: 28065680}
  - {fileID: 460922935}
  - {fileID: 89900741}
  - {fileID: 1780169371}
  - {fileID: 1208793709}
  - {fileID: 1339049052}
  - {fileID: 590234851}
  - {fileID: 362354638}
  - {fileID: 1908822325}
  - {fileID: 240932146}
  - {fileID: 857721959}
  - {fileID: 215802725}
  - {fileID: 594215010}
  - {fileID: 1328421468}
  - {fileID: 1847581116}
  - {fileID: 95669675}
  - {fileID: 82646849}
  - {fileID: 482218726}
  - {fileID: 388892664}
  - {fileID: 490677328}
  - {fileID: 1790755335}
  - {fileID: 704081527}
  - {fileID: 704944270}
  - {fileID: 177016666}
  - {fileID: 203977240}
  - {fileID: 639947578}
  - {fileID: 9864410}
  - {fileID: 1711278486}
  - {fileID: 2024951388}
  - {fileID: 515836398}
  - {fileID: 511735753}
  - {fileID: 2016056826}
  - {fileID: 340310913}
  - {fileID: 1284853727}
  - {fileID: 1054237067}
  - {fileID: 1264490849}
  m_BlendShapeWeights: []
  m_RootBone: {fileID: 1515182577}
  m_AABB:
    m_Center: {x: -0.013714805, y: -0.00000086426735, z: 0.00061771274}
    m_Extent: {x: 0.1674635, y: 0.48301005, z: 0.89055586}
  m_DirtyAABB: 0
--- !u!1 &949660069
GameObject:
  m_ObjectHideFlags: 0
  m_PrefabParentObject: {fileID: 100010, guid: 959d14bf134f54a6e993fe6ca6e063c0, type: 3}
  m_PrefabInternal: {fileID: 1812994960}
  serializedVersion: 5
  m_Component:
  - component: {fileID: 298932069}
  m_Layer: 0
  m_Name: Bip002 L Forearm
  m_TagString: Untagged
  m_Icon: {fileID: 0}
  m_NavMeshLayer: 0
  m_StaticEditorFlags: 0
  m_IsActive: 1
--- !u!4 &1046185463
Transform:
  m_ObjectHideFlags: 0
  m_PrefabParentObject: {fileID: 400054, guid: 959d14bf134f54a6e993fe6ca6e063c0, type: 3}
  m_PrefabInternal: {fileID: 1812994960}
  m_GameObject: {fileID: 2122939011}
  m_LocalRotation: {x: -8.096637e-15, y: 0.000000010320556, z: -0.0037209948, w: 0.9999931}
  m_LocalPosition: {x: -0.10531482, y: -0.00008385659, z: -2.3258327e-10}
  m_LocalScale: {x: 1, y: 1, z: 1}
  m_Children:
  - {fileID: 1573128451}
  m_Father: {fileID: 840868519}
  m_RootOrder: 0
  m_LocalEulerAnglesHint: {x: 0, y: 0, z: 0}
--- !u!1 &1054237066
GameObject:
  m_ObjectHideFlags: 0
  m_PrefabParentObject: {fileID: 100046, guid: 959d14bf134f54a6e993fe6ca6e063c0, type: 3}
  m_PrefabInternal: {fileID: 1812994960}
  serializedVersion: 5
  m_Component:
  - component: {fileID: 1054237067}
  m_Layer: 0
  m_Name: Bip002 R Toe02
  m_TagString: Untagged
  m_Icon: {fileID: 0}
  m_NavMeshLayer: 0
  m_StaticEditorFlags: 0
  m_IsActive: 1
--- !u!4 &1054237067
Transform:
  m_ObjectHideFlags: 0
  m_PrefabParentObject: {fileID: 400046, guid: 959d14bf134f54a6e993fe6ca6e063c0, type: 3}
  m_PrefabInternal: {fileID: 1812994960}
  m_GameObject: {fileID: 1054237066}
  m_LocalRotation: {x: 0, y: -1.0418551e-15, z: -0, w: 1}
  m_LocalPosition: {x: -0.012151635, y: 0, z: 0}
  m_LocalScale: {x: 1, y: 1, z: 1}
  m_Children: []
  m_Father: {fileID: 1984129243}
  m_RootOrder: 0
  m_LocalEulerAnglesHint: {x: 0, y: 0, z: 0}
--- !u!4 &1063608585
Transform:
  m_ObjectHideFlags: 0
  m_PrefabParentObject: {fileID: 400000, guid: 959d14bf134f54a6e993fe6ca6e063c0, type: 3}
  m_PrefabInternal: {fileID: 1812994960}
  m_GameObject: {fileID: 2046656256}
  m_LocalRotation: {x: 4.7719963e-11, y: -0.00000040002516, z: 0.14414449, w: 0.98955667}
  m_LocalPosition: {x: -0.1367727, y: 0, z: 1.1641533e-13}
  m_LocalScale: {x: 1.0000001, y: 1.0000001, z: 1}
  m_Children: []
  m_Father: {fileID: 1802368131}
  m_RootOrder: 0
  m_LocalEulerAnglesHint: {x: 0, y: 0, z: 0}
--- !u!1 &1128682727
GameObject:
  m_ObjectHideFlags: 0
  m_PrefabParentObject: {fileID: 100008, guid: 959d14bf134f54a6e993fe6ca6e063c0, type: 3}
  m_PrefabInternal: {fileID: 1812994960}
  serializedVersion: 5
  m_Component:
  - component: {fileID: 2085160386}
  m_Layer: 0
  m_Name: Bip002 L Foot
  m_TagString: Untagged
  m_Icon: {fileID: 0}
  m_NavMeshLayer: 0
  m_StaticEditorFlags: 0
  m_IsActive: 1
--- !u!1 &1164592984
GameObject:
  m_ObjectHideFlags: 0
  m_PrefabParentObject: {fileID: 100118, guid: 959d14bf134f54a6e993fe6ca6e063c0, type: 3}
  m_PrefabInternal: {fileID: 1812994960}
  serializedVersion: 5
  m_Component:
  - component: {fileID: 1164592985}
  - component: {fileID: 1164592988}
  - component: {fileID: 1164592986}
  - component: {fileID: 1164592987}
  m_Layer: 0
  m_Name: Dummy Humanoid
  m_TagString: Untagged
  m_Icon: {fileID: 0}
  m_NavMeshLayer: 0
  m_StaticEditorFlags: 0
  m_IsActive: 1
--- !u!4 &1164592985
Transform:
  m_ObjectHideFlags: 0
  m_PrefabParentObject: {fileID: 400118, guid: 959d14bf134f54a6e993fe6ca6e063c0, type: 3}
  m_PrefabInternal: {fileID: 1812994960}
  m_GameObject: {fileID: 1164592984}
  m_LocalRotation: {x: 0, y: 1, z: 0, w: -0.00000016292068}
  m_LocalPosition: {x: 0, y: 0, z: 0}
  m_LocalScale: {x: 1, y: 1, z: 1}
  m_Children:
  - {fileID: 1515182577}
  - {fileID: 900617696}
  - {fileID: 173910132}
  - {fileID: 151428878}
  m_Father: {fileID: 0}
  m_RootOrder: 5
  m_LocalEulerAnglesHint: {x: 0, y: 0, z: 0}
--- !u!114 &1164592986
MonoBehaviour:
  m_ObjectHideFlags: 0
  m_PrefabParentObject: {fileID: 0}
  m_PrefabInternal: {fileID: 0}
  m_GameObject: {fileID: 1164592984}
  m_Enabled: 1
  m_EditorHideFlags: 0
  m_Script: {fileID: 11500000, guid: d2b4d13a962bb4d0e9a622c7f12937d7, type: 3}
  m_Name: 
  m_EditorClassIdentifier: 
  target: {fileID: 2112400638}
  pin: {fileID: 173910132}
  ik: {fileID: 1164592987}
  aim: {fileID: 151428879}
  weight: 1
  effector: 6
  aimWeight:
    serializedVersion: 2
    m_Curve:
    - serializedVersion: 2
      time: 0
      value: 0.60289246
      inSlope: 0
      outSlope: 0
      tangentMode: 0
    - serializedVersion: 2
      time: 1
      value: 1
      inSlope: 0.013775352
      outSlope: 0.013775352
      tangentMode: 0
    m_PreInfinity: 2
    m_PostInfinity: 2
    m_RotationOrder: 4
--- !u!114 &1164592987
MonoBehaviour:
  m_ObjectHideFlags: 0
  m_PrefabParentObject: {fileID: 0}
  m_PrefabInternal: {fileID: 0}
  m_GameObject: {fileID: 1164592984}
  m_Enabled: 1
  m_EditorHideFlags: 0
  m_Script: {fileID: 11500000, guid: a70e525c82ce9413fa4d940ad7fcf1db, type: 3}
  m_Name: 
  m_EditorClassIdentifier: 
  fixTransforms: 1
  references:
    root: {fileID: 1164592985}
    pelvis: {fileID: 1888601033}
    leftThigh: {fileID: 1305818814}
    leftCalf: {fileID: 1546539924}
    leftFoot: {fileID: 2085160386}
    rightThigh: {fileID: 153220232}
    rightCalf: {fileID: 28065680}
    rightFoot: {fileID: 471072618}
    leftUpperArm: {fileID: 761361211}
    leftForearm: {fileID: 298932069}
    leftHand: {fileID: 1780169371}
    rightUpperArm: {fileID: 473012038}
    rightForearm: {fileID: 1573784574}
    rightHand: {fileID: 490677328}
    head: {fileID: 1063608585}
    spine:
    - {fileID: 840868519}
    - {fileID: 1046185463}
    eyes: []
  solver:
    IKPosition: {x: 0, y: 0, z: 0}
    IKPositionWeight: 1
    root: {fileID: 1164592985}
    iterations: 4
    chain:
    - pin: 0
      pull: 1
      push: 0
      pushParent: 0
      reach: 0.1
      reachSmoothing: 1
      pushSmoothing: 1
      nodes:
      - transform: {fileID: 840868519}
        weight: 1
        solverPosition: {x: 0, y: 0, z: 0}
        solverRotation: {x: 0, y: 0, z: 0, w: 1}
        defaultLocalPosition: {x: 0, y: 0, z: 0}
        defaultLocalRotation: {x: 0, y: 0, z: 0, w: 0}
        length: 0
        effectorPositionWeight: 0
        effectorRotationWeight: 0
        offset: {x: 0, y: 0, z: 0}
      children: 01000000020000000300000004000000
      childConstraints:
      - pushElasticity: 0
        pullElasticity: 1
        bone1: {fileID: 761361211}
        bone2: {fileID: 153220232}
      - pushElasticity: 0
        pullElasticity: 1
        bone1: {fileID: 473012038}
        bone2: {fileID: 1305818814}
      - pushElasticity: 0
        pullElasticity: 0
        bone1: {fileID: 761361211}
        bone2: {fileID: 473012038}
      - pushElasticity: 0
        pullElasticity: 0
        bone1: {fileID: 1305818814}
        bone2: {fileID: 153220232}
      bendConstraint:
        bone1: {fileID: 0}
        bone2: {fileID: 0}
        bone3: {fileID: 0}
        bendGoal: {fileID: 0}
        direction: {x: 1, y: 0, z: 0}
        rotationOffset: {x: 0, y: 0, z: 0, w: 0}
        weight: 0
        defaultLocalDirection: {x: 0, y: 0, z: 0}
        defaultChildDirection: {x: 0, y: 0, z: 0}
    - pin: 0
      pull: 1
      push: 0
      pushParent: 0
      reach: 0.1
      reachSmoothing: 1
      pushSmoothing: 1
      nodes:
      - transform: {fileID: 761361211}
        weight: 1
        solverPosition: {x: 0, y: 0, z: 0}
        solverRotation: {x: 0, y: 0, z: 0, w: 1}
        defaultLocalPosition: {x: 0, y: 0, z: 0}
        defaultLocalRotation: {x: 0, y: 0, z: 0, w: 0}
        length: 0
        effectorPositionWeight: 0
        effectorRotationWeight: 0
        offset: {x: 0, y: 0, z: 0}
      - transform: {fileID: 298932069}
        weight: 1
        solverPosition: {x: 0, y: 0, z: 0}
        solverRotation: {x: 0, y: 0, z: 0, w: 1}
        defaultLocalPosition: {x: 0, y: 0, z: 0}
        defaultLocalRotation: {x: 0, y: 0, z: 0, w: 0}
        length: 0
        effectorPositionWeight: 0
        effectorRotationWeight: 0
        offset: {x: 0, y: 0, z: 0}
      - transform: {fileID: 1780169371}
        weight: 1
        solverPosition: {x: 0, y: 0, z: 0}
        solverRotation: {x: 0, y: 0, z: 0, w: 1}
        defaultLocalPosition: {x: 0, y: 0, z: 0}
        defaultLocalRotation: {x: 0, y: 0, z: 0, w: 0}
        length: 0
        effectorPositionWeight: 0
        effectorRotationWeight: 0
        offset: {x: 0, y: 0, z: 0}
      children: 
      childConstraints: []
      bendConstraint:
        bone1: {fileID: 0}
        bone2: {fileID: 0}
        bone3: {fileID: 0}
        bendGoal: {fileID: 0}
        direction: {x: 1, y: 0, z: 0}
        rotationOffset: {x: 0, y: 0, z: 0, w: 0}
        weight: 0
        defaultLocalDirection: {x: 0, y: 0, z: 0}
        defaultChildDirection: {x: 0, y: 0, z: 0}
    - pin: 0
      pull: 1
      push: 0
      pushParent: 0
      reach: 0.1
      reachSmoothing: 1
      pushSmoothing: 1
      nodes:
      - transform: {fileID: 473012038}
        weight: 1
        solverPosition: {x: 0, y: 0, z: 0}
        solverRotation: {x: 0, y: 0, z: 0, w: 1}
        defaultLocalPosition: {x: 0, y: 0, z: 0}
        defaultLocalRotation: {x: 0, y: 0, z: 0, w: 0}
        length: 0
        effectorPositionWeight: 0
        effectorRotationWeight: 0
        offset: {x: 0, y: 0, z: 0}
      - transform: {fileID: 1573784574}
        weight: 1
        solverPosition: {x: 0, y: 0, z: 0}
        solverRotation: {x: 0, y: 0, z: 0, w: 1}
        defaultLocalPosition: {x: 0, y: 0, z: 0}
        defaultLocalRotation: {x: 0, y: 0, z: 0, w: 0}
        length: 0
        effectorPositionWeight: 0
        effectorRotationWeight: 0
        offset: {x: 0, y: 0, z: 0}
      - transform: {fileID: 490677328}
        weight: 1
        solverPosition: {x: 0, y: 0, z: 0}
        solverRotation: {x: 0, y: 0, z: 0, w: 1}
        defaultLocalPosition: {x: 0, y: 0, z: 0}
        defaultLocalRotation: {x: 0, y: 0, z: 0, w: 0}
        length: 0
        effectorPositionWeight: 0
        effectorRotationWeight: 0
        offset: {x: 0, y: 0, z: 0}
      children: 
      childConstraints: []
      bendConstraint:
        bone1: {fileID: 0}
        bone2: {fileID: 0}
        bone3: {fileID: 0}
        bendGoal: {fileID: 0}
        direction: {x: 1, y: 0, z: 0}
        rotationOffset: {x: 0, y: 0, z: 0, w: 0}
        weight: 0
        defaultLocalDirection: {x: 0, y: 0, z: 0}
        defaultChildDirection: {x: 0, y: 0, z: 0}
    - pin: 0
      pull: 1
      push: 0
      pushParent: 0
      reach: 0.1
      reachSmoothing: 1
      pushSmoothing: 1
      nodes:
      - transform: {fileID: 1305818814}
        weight: 1
        solverPosition: {x: 0, y: 0, z: 0}
        solverRotation: {x: 0, y: 0, z: 0, w: 1}
        defaultLocalPosition: {x: 0, y: 0, z: 0}
        defaultLocalRotation: {x: 0, y: 0, z: 0, w: 0}
        length: 0
        effectorPositionWeight: 0
        effectorRotationWeight: 0
        offset: {x: 0, y: 0, z: 0}
      - transform: {fileID: 1546539924}
        weight: 1
        solverPosition: {x: 0, y: 0, z: 0}
        solverRotation: {x: 0, y: 0, z: 0, w: 1}
        defaultLocalPosition: {x: 0, y: 0, z: 0}
        defaultLocalRotation: {x: 0, y: 0, z: 0, w: 0}
        length: 0
        effectorPositionWeight: 0
        effectorRotationWeight: 0
        offset: {x: 0, y: 0, z: 0}
      - transform: {fileID: 2085160386}
        weight: 1
        solverPosition: {x: 0, y: 0, z: 0}
        solverRotation: {x: 0, y: 0, z: 0, w: 1}
        defaultLocalPosition: {x: 0, y: 0, z: 0}
        defaultLocalRotation: {x: 0, y: 0, z: 0, w: 0}
        length: 0
        effectorPositionWeight: 0
        effectorRotationWeight: 0
        offset: {x: 0, y: 0, z: 0}
      children: 
      childConstraints: []
      bendConstraint:
        bone1: {fileID: 0}
        bone2: {fileID: 0}
        bone3: {fileID: 0}
        bendGoal: {fileID: 0}
        direction: {x: 1, y: 0, z: 0}
        rotationOffset: {x: 0, y: 0, z: 0, w: 0}
        weight: 0
        defaultLocalDirection: {x: 0, y: 0, z: 0}
        defaultChildDirection: {x: 0, y: 0, z: 0}
    - pin: 0
      pull: 1
      push: 0
      pushParent: 0
      reach: 0.1
      reachSmoothing: 1
      pushSmoothing: 1
      nodes:
      - transform: {fileID: 153220232}
        weight: 1
        solverPosition: {x: 0, y: 0, z: 0}
        solverRotation: {x: 0, y: 0, z: 0, w: 1}
        defaultLocalPosition: {x: 0, y: 0, z: 0}
        defaultLocalRotation: {x: 0, y: 0, z: 0, w: 0}
        length: 0
        effectorPositionWeight: 0
        effectorRotationWeight: 0
        offset: {x: 0, y: 0, z: 0}
      - transform: {fileID: 28065680}
        weight: 1
        solverPosition: {x: 0, y: 0, z: 0}
        solverRotation: {x: 0, y: 0, z: 0, w: 1}
        defaultLocalPosition: {x: 0, y: 0, z: 0}
        defaultLocalRotation: {x: 0, y: 0, z: 0, w: 0}
        length: 0
        effectorPositionWeight: 0
        effectorRotationWeight: 0
        offset: {x: 0, y: 0, z: 0}
      - transform: {fileID: 471072618}
        weight: 1
        solverPosition: {x: 0, y: 0, z: 0}
        solverRotation: {x: 0, y: 0, z: 0, w: 1}
        defaultLocalPosition: {x: 0, y: 0, z: 0}
        defaultLocalRotation: {x: 0, y: 0, z: 0, w: 0}
        length: 0
        effectorPositionWeight: 0
        effectorRotationWeight: 0
        offset: {x: 0, y: 0, z: 0}
      children: 
      childConstraints: []
      bendConstraint:
        bone1: {fileID: 0}
        bone2: {fileID: 0}
        bone3: {fileID: 0}
        bendGoal: {fileID: 0}
        direction: {x: 1, y: 0, z: 0}
        rotationOffset: {x: 0, y: 0, z: 0, w: 0}
        weight: 0
        defaultLocalDirection: {x: 0, y: 0, z: 0}
        defaultChildDirection: {x: 0, y: 0, z: 0}
    effectors:
    - bone: {fileID: 840868519}
      target: {fileID: 0}
      positionWeight: 0
      rotationWeight: 0
      position: {x: 0, y: 0, z: 0}
      rotation: {x: 0, y: 0, z: 0, w: 1}
      positionOffset: {x: 0, y: 0, z: 0}
      effectChildNodes: 1
      maintainRelativePositionWeight: 0
      childBones:
      - {fileID: 1305818814}
      - {fileID: 153220232}
      planeBone1: {fileID: 0}
      planeBone2: {fileID: 0}
      planeBone3: {fileID: 0}
      planeRotationOffset: {x: 0, y: 0, z: 0, w: 1}
    - bone: {fileID: 761361211}
      target: {fileID: 0}
      positionWeight: 0
      rotationWeight: 0
      position: {x: 0, y: 0, z: 0}
      rotation: {x: 0, y: 0, z: 0, w: 1}
      positionOffset: {x: 0, y: 0, z: 0}
      effectChildNodes: 1
      maintainRelativePositionWeight: 0
      childBones: []
      planeBone1: {fileID: 0}
      planeBone2: {fileID: 0}
      planeBone3: {fileID: 0}
      planeRotationOffset: {x: 0, y: 0, z: 0, w: 1}
    - bone: {fileID: 473012038}
      target: {fileID: 0}
      positionWeight: 0
      rotationWeight: 0
      position: {x: 0, y: 0, z: 0}
      rotation: {x: 0, y: 0, z: 0, w: 1}
      positionOffset: {x: 0, y: 0, z: 0}
      effectChildNodes: 1
      maintainRelativePositionWeight: 0
      childBones: []
      planeBone1: {fileID: 0}
      planeBone2: {fileID: 0}
      planeBone3: {fileID: 0}
      planeRotationOffset: {x: 0, y: 0, z: 0, w: 1}
    - bone: {fileID: 1305818814}
      target: {fileID: 0}
      positionWeight: 0
      rotationWeight: 0
      position: {x: 0, y: 0, z: 0}
      rotation: {x: 0, y: 0, z: 0, w: 1}
      positionOffset: {x: 0, y: 0, z: 0}
      effectChildNodes: 1
      maintainRelativePositionWeight: 0
      childBones: []
      planeBone1: {fileID: 0}
      planeBone2: {fileID: 0}
      planeBone3: {fileID: 0}
      planeRotationOffset: {x: 0, y: 0, z: 0, w: 1}
    - bone: {fileID: 153220232}
      target: {fileID: 0}
      positionWeight: 0
      rotationWeight: 0
      position: {x: 0, y: 0, z: 0}
      rotation: {x: 0, y: 0, z: 0, w: 1}
      positionOffset: {x: 0, y: 0, z: 0}
      effectChildNodes: 1
      maintainRelativePositionWeight: 0
      childBones: []
      planeBone1: {fileID: 0}
      planeBone2: {fileID: 0}
      planeBone3: {fileID: 0}
      planeRotationOffset: {x: 0, y: 0, z: 0, w: 1}
    - bone: {fileID: 1780169371}
      target: {fileID: 0}
      positionWeight: 0
      rotationWeight: 0
      position: {x: 0, y: 0, z: 0}
      rotation: {x: 0, y: 0, z: 0, w: 1}
      positionOffset: {x: 0, y: 0, z: 0}
      effectChildNodes: 1
      maintainRelativePositionWeight: 0
      childBones: []
      planeBone1: {fileID: 761361211}
      planeBone2: {fileID: 473012038}
      planeBone3: {fileID: 840868519}
      planeRotationOffset: {x: 0, y: 0, z: 0, w: 1}
    - bone: {fileID: 490677328}
      target: {fileID: 0}
      positionWeight: 0
      rotationWeight: 0
      position: {x: 0, y: 0, z: 0}
      rotation: {x: 0, y: 0, z: 0, w: 1}
      positionOffset: {x: 0, y: 0, z: 0}
      effectChildNodes: 1
      maintainRelativePositionWeight: 0
      childBones: []
      planeBone1: {fileID: 473012038}
      planeBone2: {fileID: 761361211}
      planeBone3: {fileID: 840868519}
      planeRotationOffset: {x: 0, y: 0, z: 0, w: 1}
    - bone: {fileID: 2085160386}
      target: {fileID: 0}
      positionWeight: 0
      rotationWeight: 0
      position: {x: 0, y: 0, z: 0}
      rotation: {x: 0, y: 0, z: 0, w: 1}
      positionOffset: {x: 0, y: 0, z: 0}
      effectChildNodes: 1
      maintainRelativePositionWeight: 0
      childBones: []
      planeBone1: {fileID: 1305818814}
      planeBone2: {fileID: 153220232}
      planeBone3: {fileID: 840868519}
      planeRotationOffset: {x: 0, y: 0, z: 0, w: 1}
    - bone: {fileID: 471072618}
      target: {fileID: 0}
      positionWeight: 0
      rotationWeight: 0
      position: {x: 0, y: 0, z: 0}
      rotation: {x: 0, y: 0, z: 0, w: 1}
      positionOffset: {x: 0, y: 0, z: 0}
      effectChildNodes: 1
      maintainRelativePositionWeight: 0
      childBones: []
      planeBone1: {fileID: 153220232}
      planeBone2: {fileID: 1305818814}
      planeBone3: {fileID: 840868519}
      planeRotationOffset: {x: 0, y: 0, z: 0, w: 1}
    spineMapping:
      spineBones:
      - {fileID: 1888601033}
      - {fileID: 840868519}
      - {fileID: 1046185463}
      leftUpperArmBone: {fileID: 761361211}
      rightUpperArmBone: {fileID: 473012038}
      leftThighBone: {fileID: 1305818814}
      rightThighBone: {fileID: 153220232}
      iterations: 3
      twistWeight: 1
    boneMappings:
    - bone: {fileID: 1063608585}
      maintainRotationWeight: 0
    limbMappings:
    - parentBone: {fileID: 1398166772}
      bone1: {fileID: 761361211}
      bone2: {fileID: 298932069}
      bone3: {fileID: 1780169371}
      maintainRotationWeight: 0
      weight: 1
    - parentBone: {fileID: 557408046}
      bone1: {fileID: 473012038}
      bone2: {fileID: 1573784574}
      bone3: {fileID: 490677328}
      maintainRotationWeight: 0
      weight: 1
    - parentBone: {fileID: 0}
      bone1: {fileID: 1305818814}
      bone2: {fileID: 1546539924}
      bone3: {fileID: 2085160386}
      maintainRotationWeight: 1
      weight: 1
    - parentBone: {fileID: 0}
      bone1: {fileID: 153220232}
      bone2: {fileID: 28065680}
      bone3: {fileID: 471072618}
      maintainRotationWeight: 1
      weight: 1
    FABRIKPass: 1
    rootNode: {fileID: 840868519}
    spineStiffness: 1
    pullBodyVertical: 1
    pullBodyHorizontal: 0.5
--- !u!95 &1164592988
Animator:
  serializedVersion: 3
  m_ObjectHideFlags: 0
  m_PrefabParentObject: {fileID: 9500000, guid: 959d14bf134f54a6e993fe6ca6e063c0,
    type: 3}
  m_PrefabInternal: {fileID: 1812994960}
  m_GameObject: {fileID: 1164592984}
  m_Enabled: 1
  m_Avatar: {fileID: 9000000, guid: 959d14bf134f54a6e993fe6ca6e063c0, type: 3}
  m_Controller: {fileID: 9100000, guid: a3b2662b56ec9481e9e0327a30d7c02d, type: 2}
  m_CullingMode: 1
  m_UpdateMode: 0
  m_ApplyRootMotion: 0
  m_LinearVelocityBlending: 0
  m_WarningMessage: 
  m_HasTransformHierarchy: 1
  m_AllowConstantClipSamplingOptimization: 1
--- !u!1 &1178531802
GameObject:
  m_ObjectHideFlags: 0
  m_PrefabParentObject: {fileID: 0}
  m_PrefabInternal: {fileID: 0}
  serializedVersion: 5
  m_Component:
  - component: {fileID: 1178531803}
  - component: {fileID: 1178531804}
  m_Layer: 0
  m_Name: Directional light
  m_TagString: Untagged
  m_Icon: {fileID: 0}
  m_NavMeshLayer: 0
  m_StaticEditorFlags: 0
  m_IsActive: 1
--- !u!4 &1178531803
Transform:
  m_ObjectHideFlags: 0
  m_PrefabParentObject: {fileID: 0}
  m_PrefabInternal: {fileID: 0}
  m_GameObject: {fileID: 1178531802}
  m_LocalRotation: {x: 0.2953351, y: -0.45261332, z: 0.8302652, w: -0.13630143}
  m_LocalPosition: {x: -0.022630244, y: 3.5827851, z: 0.086004406}
  m_LocalScale: {x: 1, y: 1, z: 1}
  m_Children: []
  m_Father: {fileID: 0}
  m_RootOrder: 2
  m_LocalEulerAnglesHint: {x: 0, y: 0, z: 0}
--- !u!108 &1178531804
Light:
  m_ObjectHideFlags: 0
  m_PrefabParentObject: {fileID: 0}
  m_PrefabInternal: {fileID: 0}
  m_GameObject: {fileID: 1178531802}
  m_Enabled: 1
  serializedVersion: 8
  m_Type: 1
  m_Color: {r: 1, g: 1, b: 1, a: 1}
  m_Intensity: 1
  m_Range: 10
  m_SpotAngle: 30
  m_CookieSize: 10
  m_Shadows:
    m_Type: 2
    m_Resolution: -1
    m_CustomResolution: -1
    m_Strength: 0.796
    m_Bias: 0.044
    m_NormalBias: 0.4
    m_NearPlane: 0.2
  m_Cookie: {fileID: 0}
  m_DrawHalo: 0
  m_Flare: {fileID: 0}
  m_RenderMode: 0
  m_CullingMask:
    serializedVersion: 2
    m_Bits: 4294967295
  m_Lightmapping: 1
  m_AreaSize: {x: 1, y: 1}
  m_BounceIntensity: 1
  m_ColorTemperature: 6570
  m_UseColorTemperature: 0
  m_ShadowRadius: 0
  m_ShadowAngle: 0
--- !u!1 &1208793708
GameObject:
  m_ObjectHideFlags: 0
  m_PrefabParentObject: {fileID: 100070, guid: 959d14bf134f54a6e993fe6ca6e063c0, type: 3}
  m_PrefabInternal: {fileID: 1812994960}
  serializedVersion: 5
  m_Component:
  - component: {fileID: 1208793709}
  m_Layer: 0
  m_Name: BipDummy L Finger2
  m_TagString: Untagged
  m_Icon: {fileID: 0}
  m_NavMeshLayer: 0
  m_StaticEditorFlags: 0
  m_IsActive: 1
--- !u!4 &1208793709
Transform:
  m_ObjectHideFlags: 0
  m_PrefabParentObject: {fileID: 400070, guid: 959d14bf134f54a6e993fe6ca6e063c0, type: 3}
  m_PrefabInternal: {fileID: 1812994960}
  m_GameObject: {fileID: 1208793708}
  m_LocalRotation: {x: -0.001918456, y: 0.023514757, z: -0.14601779, w: 0.9890006}
  m_LocalPosition: {x: -0.10838886, y: -0.005206055, z: -0.00035929872}
  m_LocalScale: {x: 1, y: 1.0000001, z: 1.0000001}
  m_Children:
  - {fileID: 857721959}
  m_Father: {fileID: 1780169371}
  m_RootOrder: 2
  m_LocalEulerAnglesHint: {x: 0, y: 0, z: 0}
--- !u!1 &1264490848
GameObject:
  m_ObjectHideFlags: 0
  m_PrefabParentObject: {fileID: 100020, guid: 959d14bf134f54a6e993fe6ca6e063c0, type: 3}
  m_PrefabInternal: {fileID: 1812994960}
  serializedVersion: 5
  m_Component:
  - component: {fileID: 1264490849}
  m_Layer: 0
  m_Name: Bip002 L Toe02
  m_TagString: Untagged
  m_Icon: {fileID: 0}
  m_NavMeshLayer: 0
  m_StaticEditorFlags: 0
  m_IsActive: 1
--- !u!4 &1264490849
Transform:
  m_ObjectHideFlags: 0
  m_PrefabParentObject: {fileID: 400020, guid: 959d14bf134f54a6e993fe6ca6e063c0, type: 3}
  m_PrefabInternal: {fileID: 1812994960}
  m_GameObject: {fileID: 1264490848}
  m_LocalRotation: {x: 0, y: -9.407548e-16, z: -0, w: 1}
  m_LocalPosition: {x: -0.012151627, y: 0, z: -0.000000007629395}
  m_LocalScale: {x: 1, y: 1, z: 1}
  m_Children: []
  m_Father: {fileID: 1805224702}
  m_RootOrder: 0
  m_LocalEulerAnglesHint: {x: 0, y: 0, z: 0}
--- !u!1 &1284853726
GameObject:
  m_ObjectHideFlags: 0
  m_PrefabParentObject: {fileID: 100114, guid: 959d14bf134f54a6e993fe6ca6e063c0, type: 3}
  m_PrefabInternal: {fileID: 1812994960}
  serializedVersion: 5
  m_Component:
  - component: {fileID: 1284853727}
  m_Layer: 0
  m_Name: BipDummy R Finger42
  m_TagString: Untagged
  m_Icon: {fileID: 0}
  m_NavMeshLayer: 0
  m_StaticEditorFlags: 0
  m_IsActive: 1
--- !u!4 &1284853727
Transform:
  m_ObjectHideFlags: 0
  m_PrefabParentObject: {fileID: 400114, guid: 959d14bf134f54a6e993fe6ca6e063c0, type: 3}
  m_PrefabInternal: {fileID: 1812994960}
  m_GameObject: {fileID: 1284853726}
  m_LocalRotation: {x: 0.00000002317485, y: -0.000000022827779, z: -0.35736334, w: 0.93396544}
  m_LocalPosition: {x: -0.018896058, y: 0, z: -0.00000001525879}
  m_LocalScale: {x: 1.0000001, y: 1, z: 0.99999994}
  m_Children: []
  m_Father: {fileID: 340310913}
  m_RootOrder: 0
  m_LocalEulerAnglesHint: {x: 0, y: 0, z: 0}
--- !u!4 &1305818814
Transform:
  m_ObjectHideFlags: 0
  m_PrefabParentObject: {fileID: 400014, guid: 959d14bf134f54a6e993fe6ca6e063c0, type: 3}
  m_PrefabInternal: {fileID: 1812994960}
  m_GameObject: {fileID: 1535501156}
  m_LocalRotation: {x: -0.012555973, y: 0.9998845, z: 0.0005191883, w: 0.008549745}
  m_LocalPosition: {x: 0.09312867, y: -0.0024274522, z: 0.096502244}
  m_LocalScale: {x: 1, y: 1, z: 1.0000001}
  m_Children:
  - {fileID: 1546539924}
  m_Father: {fileID: 2059687989}
  m_RootOrder: 0
  m_LocalEulerAnglesHint: {x: 0, y: 0, z: 0}
--- !u!1 &1328421467
GameObject:
  m_ObjectHideFlags: 0
  m_PrefabParentObject: {fileID: 100080, guid: 959d14bf134f54a6e993fe6ca6e063c0, type: 3}
  m_PrefabInternal: {fileID: 1812994960}
  serializedVersion: 5
  m_Component:
  - component: {fileID: 1328421468}
  m_Layer: 0
  m_Name: BipDummy L Finger32
  m_TagString: Untagged
  m_Icon: {fileID: 0}
  m_NavMeshLayer: 0
  m_StaticEditorFlags: 0
  m_IsActive: 1
--- !u!4 &1328421468
Transform:
  m_ObjectHideFlags: 0
  m_PrefabParentObject: {fileID: 400080, guid: 959d14bf134f54a6e993fe6ca6e063c0, type: 3}
  m_PrefabInternal: {fileID: 1812994960}
  m_GameObject: {fileID: 1328421467}
  m_LocalRotation: {x: -0.000000023906223, y: -0.000000025557926, z: -0.30713028,
    w: 0.9516675}
  m_LocalPosition: {x: -0.02278595, y: -0.00000001525879, z: 0}
  m_LocalScale: {x: 0.9999999, y: 0.99999994, z: 0.99999994}
  m_Children: []
  m_Father: {fileID: 594215010}
  m_RootOrder: 0
  m_LocalEulerAnglesHint: {x: 0, y: 0, z: 0}
--- !u!1 &1339049051
GameObject:
  m_ObjectHideFlags: 0
  m_PrefabParentObject: {fileID: 100076, guid: 959d14bf134f54a6e993fe6ca6e063c0, type: 3}
  m_PrefabInternal: {fileID: 1812994960}
  serializedVersion: 5
  m_Component:
  - component: {fileID: 1339049052}
  m_Layer: 0
  m_Name: BipDummy L Finger3
  m_TagString: Untagged
  m_Icon: {fileID: 0}
  m_NavMeshLayer: 0
  m_StaticEditorFlags: 0
  m_IsActive: 1
--- !u!4 &1339049052
Transform:
  m_ObjectHideFlags: 0
  m_PrefabParentObject: {fileID: 400076, guid: 959d14bf134f54a6e993fe6ca6e063c0, type: 3}
  m_PrefabInternal: {fileID: 1812994960}
  m_GameObject: {fileID: 1339049051}
  m_LocalRotation: {x: -0.002835928, y: 0.013507943, z: -0.17714134, w: 0.98408866}
  m_LocalPosition: {x: -0.10328601, y: 0.0010223389, z: 0.020135194}
  m_LocalScale: {x: 1, y: 1.0000001, z: 1.0000001}
  m_Children:
  - {fileID: 594215010}
  m_Father: {fileID: 1780169371}
  m_RootOrder: 3
  m_LocalEulerAnglesHint: {x: 0, y: 0, z: 0}
--- !u!4 &1398166772
Transform:
  m_ObjectHideFlags: 0
  m_PrefabParentObject: {fileID: 400004, guid: 959d14bf134f54a6e993fe6ca6e063c0, type: 3}
  m_PrefabInternal: {fileID: 1812994960}
  m_GameObject: {fileID: 136115708}
  m_LocalRotation: {x: -0.69003224, y: -0.10505305, z: 0.7079568, w: -0.10778003}
  m_LocalPosition: {x: -0, y: 0.000108856206, z: 0.028353818}
  m_LocalScale: {x: 1, y: 1, z: 1}
  m_Children:
  - {fileID: 761361211}
  m_Father: {fileID: 1802368131}
  m_RootOrder: 1
  m_LocalEulerAnglesHint: {x: 0, y: 0, z: 0}
--- !u!1 &1417911257
GameObject:
  m_ObjectHideFlags: 0
  m_PrefabParentObject: {fileID: 100012, guid: 959d14bf134f54a6e993fe6ca6e063c0, type: 3}
  m_PrefabInternal: {fileID: 1812994960}
  serializedVersion: 5
  m_Component:
  - component: {fileID: 1780169371}
  m_Layer: 0
  m_Name: Bip002 L Hand
  m_TagString: Untagged
  m_Icon: {fileID: 0}
  m_NavMeshLayer: 0
  m_StaticEditorFlags: 0
  m_IsActive: 1
--- !u!1 &1428628948
GameObject:
  m_ObjectHideFlags: 0
  m_PrefabParentObject: {fileID: 100030, guid: 959d14bf134f54a6e993fe6ca6e063c0, type: 3}
  m_PrefabInternal: {fileID: 1812994960}
  serializedVersion: 5
  m_Component:
  - component: {fileID: 557408046}
  m_Layer: 0
  m_Name: Bip002 R Clavicle
  m_TagString: Untagged
  m_Icon: {fileID: 0}
  m_NavMeshLayer: 0
  m_StaticEditorFlags: 0
  m_IsActive: 1
--- !u!1 &1515182576
GameObject:
  m_ObjectHideFlags: 0
  m_PrefabParentObject: {fileID: 100058, guid: 959d14bf134f54a6e993fe6ca6e063c0, type: 3}
  m_PrefabInternal: {fileID: 1812994960}
  serializedVersion: 5
  m_Component:
  - component: {fileID: 1515182577}
  m_Layer: 0
  m_Name: BipDummy
  m_TagString: Untagged
  m_Icon: {fileID: 0}
  m_NavMeshLayer: 0
  m_StaticEditorFlags: 0
  m_IsActive: 1
--- !u!4 &1515182577
Transform:
  m_ObjectHideFlags: 0
  m_PrefabParentObject: {fileID: 400058, guid: 959d14bf134f54a6e993fe6ca6e063c0, type: 3}
  m_PrefabInternal: {fileID: 1812994960}
  m_GameObject: {fileID: 1515182576}
  m_LocalRotation: {x: -0.50000054, y: 0.49999946, z: 0.49999946, w: 0.50000054}
  m_LocalPosition: {x: -1.4901162e-10, y: 0.89560544, z: -0.0034221578}
  m_LocalScale: {x: 1, y: 1, z: 1}
  m_Children:
  - {fileID: 1888601033}
  m_Father: {fileID: 1164592985}
  m_RootOrder: 0
  m_LocalEulerAnglesHint: {x: 0, y: 0, z: 0}
--- !u!1 &1535501156
GameObject:
  m_ObjectHideFlags: 0
  m_PrefabParentObject: {fileID: 100014, guid: 959d14bf134f54a6e993fe6ca6e063c0, type: 3}
  m_PrefabInternal: {fileID: 1812994960}
  serializedVersion: 5
  m_Component:
  - component: {fileID: 1305818814}
  m_Layer: 0
  m_Name: Bip002 L Thigh
  m_TagString: Untagged
  m_Icon: {fileID: 0}
  m_NavMeshLayer: 0
  m_StaticEditorFlags: 0
  m_IsActive: 1
--- !u!4 &1546539924
Transform:
  m_ObjectHideFlags: 0
  m_PrefabParentObject: {fileID: 400002, guid: 959d14bf134f54a6e993fe6ca6e063c0, type: 3}
  m_PrefabInternal: {fileID: 1812994960}
  m_GameObject: {fileID: 2087473270}
  m_LocalRotation: {x: -3.5029177e-10, y: 8.9379376e-10, z: 0.12818542, w: 0.99175024}
  m_LocalPosition: {x: -0.42230678, y: 0, z: 0}
  m_LocalScale: {x: 1.0000001, y: 1.0000001, z: 1}
  m_Children:
  - {fileID: 2085160386}
  m_Father: {fileID: 1305818814}
  m_RootOrder: 0
  m_LocalEulerAnglesHint: {x: 0, y: 0, z: 0}
--- !u!4 &1573128451
Transform:
  m_ObjectHideFlags: 0
  m_PrefabParentObject: {fileID: 400056, guid: 959d14bf134f54a6e993fe6ca6e063c0, type: 3}
  m_PrefabInternal: {fileID: 1812994960}
  m_GameObject: {fileID: 701228305}
  m_LocalRotation: {x: -1.1736887e-13, y: 0.000000010320554, z: -0.0037209955, w: 0.9999931}
  m_LocalPosition: {x: -0.10531482, y: -0.00008385468, z: -2.3258327e-10}
  m_LocalScale: {x: 1, y: 1, z: 1}
  m_Children:
  - {fileID: 1802368131}
  - {fileID: 1573888311}
  m_Father: {fileID: 1046185463}
  m_RootOrder: 0
  m_LocalEulerAnglesHint: {x: 0, y: 0, z: 0}
--- !u!4 &1573784574
Transform:
  m_ObjectHideFlags: 0
  m_PrefabParentObject: {fileID: 400036, guid: 959d14bf134f54a6e993fe6ca6e063c0, type: 3}
  m_PrefabInternal: {fileID: 1812994960}
  m_GameObject: {fileID: 433946721}
  m_LocalRotation: {x: -0.000000024085356, y: -0.0000000072251183, z: 0.28733006,
    w: 0.9578316}
  m_LocalPosition: {x: -0.24303266, y: 0, z: 0}
  m_LocalScale: {x: 1, y: 1, z: 1}
  m_Children:
  - {fileID: 490677328}
  m_Father: {fileID: 473012038}
  m_RootOrder: 0
  m_LocalEulerAnglesHint: {x: 0, y: 0, z: 0}
--- !u!1 &1573888310
GameObject:
  m_ObjectHideFlags: 0
  m_PrefabParentObject: {fileID: 0}
  m_PrefabInternal: {fileID: 0}
  serializedVersion: 5
  m_Component:
  - component: {fileID: 1573888311}
  m_Layer: 0
  m_Name: PunchAimTransform
  m_TagString: Untagged
  m_Icon: {fileID: 0}
  m_NavMeshLayer: 0
  m_StaticEditorFlags: 0
  m_IsActive: 1
--- !u!4 &1573888311
Transform:
  m_ObjectHideFlags: 0
  m_PrefabParentObject: {fileID: 0}
  m_PrefabInternal: {fileID: 0}
  m_GameObject: {fileID: 1573888310}
  m_LocalRotation: {x: 0, y: 0, z: 0, w: 1}
  m_LocalPosition: {x: -0, y: 0, z: -0}
  m_LocalScale: {x: 1, y: 1, z: 1}
  m_Children: []
  m_Father: {fileID: 1573128451}
  m_RootOrder: 1
  m_LocalEulerAnglesHint: {x: 0, y: 0, z: 0}
--- !u!1 &1700853252
GameObject:
  m_ObjectHideFlags: 0
  m_PrefabParentObject: {fileID: 100022, guid: 959d14bf134f54a6e993fe6ca6e063c0, type: 3}
  m_PrefabInternal: {fileID: 1812994960}
  serializedVersion: 5
  m_Component:
  - component: {fileID: 761361211}
  m_Layer: 0
  m_Name: Bip002 L UpperArm
  m_TagString: Untagged
  m_Icon: {fileID: 0}
  m_NavMeshLayer: 0
  m_StaticEditorFlags: 0
  m_IsActive: 1
--- !u!1 &1711278485
GameObject:
  m_ObjectHideFlags: 0
  m_PrefabParentObject: {fileID: 100102, guid: 959d14bf134f54a6e993fe6ca6e063c0, type: 3}
  m_PrefabInternal: {fileID: 1812994960}
  serializedVersion: 5
  m_Component:
  - component: {fileID: 1711278486}
  m_Layer: 0
  m_Name: BipDummy R Finger22
  m_TagString: Untagged
  m_Icon: {fileID: 0}
  m_NavMeshLayer: 0
  m_StaticEditorFlags: 0
  m_IsActive: 1
--- !u!4 &1711278486
Transform:
  m_ObjectHideFlags: 0
  m_PrefabParentObject: {fileID: 400102, guid: 959d14bf134f54a6e993fe6ca6e063c0, type: 3}
  m_PrefabInternal: {fileID: 1812994960}
  m_GameObject: {fileID: 1711278485}
  m_LocalRotation: {x: -3.7377737e-10, y: -0.0000000037064913, z: -0.100335106, w: 0.99495375}
  m_LocalPosition: {x: -0.023578431, y: 0, z: 0.00000003051758}
  m_LocalScale: {x: 1, y: 1.0000001, z: 1.0000001}
  m_Children: []
  m_Father: {fileID: 9864410}
  m_RootOrder: 0
  m_LocalEulerAnglesHint: {x: 0, y: 0, z: 0}
--- !u!4 &1780169371
Transform:
  m_ObjectHideFlags: 0
  m_PrefabParentObject: {fileID: 400012, guid: 959d14bf134f54a6e993fe6ca6e063c0, type: 3}
  m_PrefabInternal: {fileID: 1812994960}
  m_GameObject: {fileID: 1417911257}
  m_LocalRotation: {x: -0.7212754, y: -0.08105717, z: 0.07682164, w: 0.6835861}
  m_LocalPosition: {x: -0.2430326, y: -0.00000003051758, z: 0}
  m_LocalScale: {x: 1, y: 1, z: 1.0000001}
  m_Children:
  - {fileID: 89900741}
  - {fileID: 590234851}
  - {fileID: 1208793709}
  - {fileID: 1339049052}
  - {fileID: 1908822325}
  m_Father: {fileID: 298932069}
  m_RootOrder: 0
  m_LocalEulerAnglesHint: {x: 0, y: 0, z: 0}
--- !u!1 &1790755334
GameObject:
  m_ObjectHideFlags: 0
  m_PrefabParentObject: {fileID: 100098, guid: 959d14bf134f54a6e993fe6ca6e063c0, type: 3}
  m_PrefabInternal: {fileID: 1812994960}
  serializedVersion: 5
  m_Component:
  - component: {fileID: 1790755335}
  m_Layer: 0
  m_Name: BipDummy R Finger2
  m_TagString: Untagged
  m_Icon: {fileID: 0}
  m_NavMeshLayer: 0
  m_StaticEditorFlags: 0
  m_IsActive: 1
--- !u!4 &1790755335
Transform:
  m_ObjectHideFlags: 0
  m_PrefabParentObject: {fileID: 400098, guid: 959d14bf134f54a6e993fe6ca6e063c0, type: 3}
  m_PrefabInternal: {fileID: 1812994960}
  m_GameObject: {fileID: 1790755334}
  m_LocalRotation: {x: 0.0046662716, y: -0.023126798, z: -0.2611372, w: 0.9650134}
  m_LocalPosition: {x: -0.10838886, y: -0.005205994, z: 0.00035925294}
  m_LocalScale: {x: 1.0000001, y: 1.0000001, z: 1.0000001}
  m_Children:
  - {fileID: 9864410}
  m_Father: {fileID: 490677328}
  m_RootOrder: 2
  m_LocalEulerAnglesHint: {x: 0, y: 0, z: 0}
--- !u!1 &1802368130
GameObject:
  m_ObjectHideFlags: 0
  m_PrefabParentObject: {fileID: 100024, guid: 959d14bf134f54a6e993fe6ca6e063c0, type: 3}
  m_PrefabInternal: {fileID: 1812994960}
  serializedVersion: 5
  m_Component:
  - component: {fileID: 1802368131}
  m_Layer: 0
  m_Name: Bip002 Neck
  m_TagString: Untagged
  m_Icon: {fileID: 0}
  m_NavMeshLayer: 0
  m_StaticEditorFlags: 0
  m_IsActive: 1
--- !u!4 &1802368131
Transform:
  m_ObjectHideFlags: 0
  m_PrefabParentObject: {fileID: 400024, guid: 959d14bf134f54a6e993fe6ca6e063c0, type: 3}
  m_PrefabInternal: {fileID: 1812994960}
  m_GameObject: {fileID: 1802368130}
  m_LocalRotation: {x: 4.448862e-14, y: 0.0000004163574, z: -0.15011443, w: 0.9886686}
  m_LocalPosition: {x: -0.10534644, y: -0.00010401631, z: -2.884772e-10}
  m_LocalScale: {x: 1.0000001, y: 1.0000001, z: 1}
  m_Children:
  - {fileID: 1063608585}
  - {fileID: 1398166772}
  - {fileID: 557408046}
  m_Father: {fileID: 1573128451}
  m_RootOrder: 0
  m_LocalEulerAnglesHint: {x: 0, y: 0, z: 0}
--- !u!1 &1804835964
GameObject:
  m_ObjectHideFlags: 0
  m_PrefabParentObject: {fileID: 0}
  m_PrefabInternal: {fileID: 0}
  serializedVersion: 5
  m_Component:
  - component: {fileID: 1804835966}
  - component: {fileID: 1804835965}
  m_Layer: 0
  m_Name: READ ME!
  m_TagString: Untagged
  m_Icon: {fileID: 0}
  m_NavMeshLayer: 0
  m_StaticEditorFlags: 0
  m_IsActive: 1
--- !u!114 &1804835965
MonoBehaviour:
  m_ObjectHideFlags: 0
  m_PrefabParentObject: {fileID: 0}
  m_PrefabInternal: {fileID: 0}
  m_GameObject: {fileID: 1804835964}
  m_Enabled: 1
  m_EditorHideFlags: 0
  m_Script: {fileID: 11500000, guid: 92471cc1733c49042be56cd39b4b6e5e, type: 3}
  m_Name: 
  m_EditorClassIdentifier: 
  text: "FBIKBoxing.cs is using a weight curve to specify the normalized time in the
    animation clip, when the fist is hitting the target.\n\nThat weight will be used
    as FBBIK effector.positionWeight for the right hand, while effector.position is
    set to the \"Punch Target\" game object's position. That pins the hand to the
    target only for the time when it is supposed to hit something in the animation.
    \n\nAimIK is used before FBBIK to make the upper body of the character loosely
    follow the target."
--- !u!4 &1804835966
Transform:
  m_ObjectHideFlags: 0
  m_PrefabParentObject: {fileID: 0}
  m_PrefabInternal: {fileID: 0}
  m_GameObject: {fileID: 1804835964}
  m_LocalRotation: {x: 0, y: 0, z: 0, w: 1}
  m_LocalPosition: {x: -0.32265368, y: 1.5836605, z: 0.343359}
  m_LocalScale: {x: 1, y: 1, z: 1}
  m_Children: []
  m_Father: {fileID: 0}
  m_RootOrder: 0
  m_LocalEulerAnglesHint: {x: 0, y: 0, z: 0}
--- !u!1 &1805224701
GameObject:
  m_ObjectHideFlags: 0
  m_PrefabParentObject: {fileID: 100018, guid: 959d14bf134f54a6e993fe6ca6e063c0, type: 3}
  m_PrefabInternal: {fileID: 1812994960}
  serializedVersion: 5
  m_Component:
  - component: {fileID: 1805224702}
  m_Layer: 0
  m_Name: Bip002 L Toe01
  m_TagString: Untagged
  m_Icon: {fileID: 0}
  m_NavMeshLayer: 0
  m_StaticEditorFlags: 0
  m_IsActive: 1
--- !u!4 &1805224702
Transform:
  m_ObjectHideFlags: 0
  m_PrefabParentObject: {fileID: 400018, guid: 959d14bf134f54a6e993fe6ca6e063c0, type: 3}
  m_PrefabInternal: {fileID: 1812994960}
  m_GameObject: {fileID: 1805224701}
  m_LocalRotation: {x: 0, y: -9.407548e-16, z: -0, w: 1}
  m_LocalPosition: {x: -0.012151627, y: 0, z: 0}
  m_LocalScale: {x: 1, y: 1, z: 1}
  m_Children:
  - {fileID: 1264490849}
  m_Father: {fileID: 2040470159}
  m_RootOrder: 0
  m_LocalEulerAnglesHint: {x: 0, y: 0, z: 0}
--- !u!1001 &1812994960
Prefab:
  m_ObjectHideFlags: 0
  serializedVersion: 2
  m_Modification:
    m_TransformParent: {fileID: 0}
    m_Modifications:
    - target: {fileID: 400118, guid: 959d14bf134f54a6e993fe6ca6e063c0, type: 3}
      propertyPath: m_LocalPosition.x
      value: 0
      objectReference: {fileID: 0}
    - target: {fileID: 400118, guid: 959d14bf134f54a6e993fe6ca6e063c0, type: 3}
      propertyPath: m_LocalPosition.y
      value: 0
      objectReference: {fileID: 0}
    - target: {fileID: 400118, guid: 959d14bf134f54a6e993fe6ca6e063c0, type: 3}
      propertyPath: m_LocalPosition.z
      value: 0
      objectReference: {fileID: 0}
    - target: {fileID: 400118, guid: 959d14bf134f54a6e993fe6ca6e063c0, type: 3}
      propertyPath: m_LocalRotation.x
      value: 0
      objectReference: {fileID: 0}
    - target: {fileID: 400118, guid: 959d14bf134f54a6e993fe6ca6e063c0, type: 3}
      propertyPath: m_LocalRotation.y
      value: 1
      objectReference: {fileID: 0}
    - target: {fileID: 400118, guid: 959d14bf134f54a6e993fe6ca6e063c0, type: 3}
      propertyPath: m_LocalRotation.z
      value: 0
      objectReference: {fileID: 0}
    - target: {fileID: 400118, guid: 959d14bf134f54a6e993fe6ca6e063c0, type: 3}
      propertyPath: m_LocalRotation.w
      value: -1.62920685e-07
      objectReference: {fileID: 0}
    - target: {fileID: 400118, guid: 959d14bf134f54a6e993fe6ca6e063c0, type: 3}
      propertyPath: m_RootOrder
      value: 5
      objectReference: {fileID: 0}
    - target: {fileID: 100118, guid: 959d14bf134f54a6e993fe6ca6e063c0, type: 3}
      propertyPath: m_Name
      value: Dummy Humanoid
      objectReference: {fileID: 0}
    - target: {fileID: 9500000, guid: 959d14bf134f54a6e993fe6ca6e063c0, type: 3}
      propertyPath: m_Controller
      value: 
      objectReference: {fileID: 9100000, guid: a3b2662b56ec9481e9e0327a30d7c02d, type: 2}
    - target: {fileID: 9500000, guid: 959d14bf134f54a6e993fe6ca6e063c0, type: 3}
      propertyPath: m_ApplyRootMotion
      value: 0
      objectReference: {fileID: 0}
    m_RemovedComponents: []
  m_ParentPrefab: {fileID: 100100000, guid: 959d14bf134f54a6e993fe6ca6e063c0, type: 3}
  m_RootGameObject: {fileID: 1164592984}
  m_IsPrefabParent: 0
--- !u!1 &1847581115
GameObject:
  m_ObjectHideFlags: 0
  m_PrefabParentObject: {fileID: 100066, guid: 959d14bf134f54a6e993fe6ca6e063c0, type: 3}
  m_PrefabInternal: {fileID: 1812994960}
  serializedVersion: 5
  m_Component:
  - component: {fileID: 1847581116}
  m_Layer: 0
  m_Name: BipDummy L Finger11
  m_TagString: Untagged
  m_Icon: {fileID: 0}
  m_NavMeshLayer: 0
  m_StaticEditorFlags: 0
  m_IsActive: 1
--- !u!4 &1847581116
Transform:
  m_ObjectHideFlags: 0
  m_PrefabParentObject: {fileID: 400066, guid: 959d14bf134f54a6e993fe6ca6e063c0, type: 3}
  m_PrefabInternal: {fileID: 1812994960}
  m_GameObject: {fileID: 1847581115}
  m_LocalRotation: {x: -0.00000004303571, y: 0.000000014207038, z: -0.15310442, w: 0.98821}
  m_LocalPosition: {x: -0.047266666, y: 0, z: 0.00000003051758}
  m_LocalScale: {x: 1.0000001, y: 1.0000001, z: 1}
  m_Children:
  - {fileID: 95669675}
  m_Father: {fileID: 590234851}
  m_RootOrder: 0
  m_LocalEulerAnglesHint: {x: 0, y: 0, z: 0}
--- !u!4 &1888601033
Transform:
  m_ObjectHideFlags: 0
  m_PrefabParentObject: {fileID: 400026, guid: 959d14bf134f54a6e993fe6ca6e063c0, type: 3}
  m_PrefabInternal: {fileID: 1812994960}
  m_GameObject: {fileID: 736059186}
  m_LocalRotation: {x: -0.49999964, y: 0.50000036, z: 0.49999964, w: 0.50000036}
  m_LocalPosition: {x: -0, y: 0, z: 0}
  m_LocalScale: {x: 1, y: 1, z: 1}
  m_Children:
  - {fileID: 2059687989}
  m_Father: {fileID: 1515182577}
  m_RootOrder: 0
  m_LocalEulerAnglesHint: {x: 0, y: 0, z: 0}
--- !u!1 &1908822324
GameObject:
  m_ObjectHideFlags: 0
  m_PrefabParentObject: {fileID: 100082, guid: 959d14bf134f54a6e993fe6ca6e063c0, type: 3}
  m_PrefabInternal: {fileID: 1812994960}
  serializedVersion: 5
  m_Component:
  - component: {fileID: 1908822325}
  m_Layer: 0
  m_Name: BipDummy L Finger4
  m_TagString: Untagged
  m_Icon: {fileID: 0}
  m_NavMeshLayer: 0
  m_StaticEditorFlags: 0
  m_IsActive: 1
--- !u!4 &1908822325
Transform:
  m_ObjectHideFlags: 0
  m_PrefabParentObject: {fileID: 400082, guid: 959d14bf134f54a6e993fe6ca6e063c0, type: 3}
  m_PrefabInternal: {fileID: 1812994960}
  m_GameObject: {fileID: 1908822324}
  m_LocalRotation: {x: -0.002490904, y: 0.009521965, z: -0.21373138, w: 0.9768429}
  m_LocalPosition: {x: -0.09384656, y: 0.00909961, z: 0.03997948}
  m_LocalScale: {x: 1.0000001, y: 1.0000001, z: 0.9999999}
  m_Children:
  - {fileID: 82646849}
  m_Father: {fileID: 1780169371}
  m_RootOrder: 4
  m_LocalEulerAnglesHint: {x: 0, y: 0, z: 0}
--- !u!1 &1948045593
GameObject:
  m_ObjectHideFlags: 0
  m_PrefabParentObject: {fileID: 100028, guid: 959d14bf134f54a6e993fe6ca6e063c0, type: 3}
  m_PrefabInternal: {fileID: 1812994960}
  serializedVersion: 5
  m_Component:
  - component: {fileID: 28065680}
  m_Layer: 0
  m_Name: Bip002 R Calf
  m_TagString: Untagged
  m_Icon: {fileID: 0}
  m_NavMeshLayer: 0
  m_StaticEditorFlags: 0
  m_IsActive: 1
--- !u!1 &1984129242
GameObject:
  m_ObjectHideFlags: 0
  m_PrefabParentObject: {fileID: 100044, guid: 959d14bf134f54a6e993fe6ca6e063c0, type: 3}
  m_PrefabInternal: {fileID: 1812994960}
  serializedVersion: 5
  m_Component:
  - component: {fileID: 1984129243}
  m_Layer: 0
  m_Name: Bip002 R Toe01
  m_TagString: Untagged
  m_Icon: {fileID: 0}
  m_NavMeshLayer: 0
  m_StaticEditorFlags: 0
  m_IsActive: 1
--- !u!4 &1984129243
Transform:
  m_ObjectHideFlags: 0
  m_PrefabParentObject: {fileID: 400044, guid: 959d14bf134f54a6e993fe6ca6e063c0, type: 3}
  m_PrefabInternal: {fileID: 1812994960}
  m_GameObject: {fileID: 1984129242}
  m_LocalRotation: {x: 0, y: -1.0418551e-15, z: -0, w: 1}
  m_LocalPosition: {x: -0.012151627, y: 0, z: 0}
  m_LocalScale: {x: 1, y: 1, z: 1}
  m_Children:
  - {fileID: 1054237067}
  m_Father: {fileID: 460922935}
  m_RootOrder: 0
  m_LocalEulerAnglesHint: {x: 0, y: 0, z: 0}
--- !u!1 &2016056825
GameObject:
  m_ObjectHideFlags: 0
  m_PrefabParentObject: {fileID: 100096, guid: 959d14bf134f54a6e993fe6ca6e063c0, type: 3}
  m_PrefabInternal: {fileID: 1812994960}
  serializedVersion: 5
  m_Component:
  - component: {fileID: 2016056826}
  m_Layer: 0
  m_Name: BipDummy R Finger12
  m_TagString: Untagged
  m_Icon: {fileID: 0}
  m_NavMeshLayer: 0
  m_StaticEditorFlags: 0
  m_IsActive: 1
--- !u!4 &2016056826
Transform:
  m_ObjectHideFlags: 0
  m_PrefabParentObject: {fileID: 400096, guid: 959d14bf134f54a6e993fe6ca6e063c0, type: 3}
  m_PrefabInternal: {fileID: 1812994960}
  m_GameObject: {fileID: 2016056825}
  m_LocalRotation: {x: 0.0000000045875606, y: 0.000000021875893, z: -0.20524399, w: 0.97871083}
  m_LocalPosition: {x: -0.01876288, y: -0.000000045776368, z: 0.00000001525879}
  m_LocalScale: {x: 1, y: 0.99999994, z: 0.99999994}
  m_Children: []
  m_Father: {fileID: 511735753}
  m_RootOrder: 0
  m_LocalEulerAnglesHint: {x: 0, y: 0, z: 0}
--- !u!1 &2024951387
GameObject:
  m_ObjectHideFlags: 0
  m_PrefabParentObject: {fileID: 100106, guid: 959d14bf134f54a6e993fe6ca6e063c0, type: 3}
  m_PrefabInternal: {fileID: 1812994960}
  serializedVersion: 5
  m_Component:
  - component: {fileID: 2024951388}
  m_Layer: 0
  m_Name: BipDummy R Finger31
  m_TagString: Untagged
  m_Icon: {fileID: 0}
  m_NavMeshLayer: 0
  m_StaticEditorFlags: 0
  m_IsActive: 1
--- !u!4 &2024951388
Transform:
  m_ObjectHideFlags: 0
  m_PrefabParentObject: {fileID: 400106, guid: 959d14bf134f54a6e993fe6ca6e063c0, type: 3}
  m_PrefabInternal: {fileID: 1812994960}
  m_GameObject: {fileID: 2024951387}
  m_LocalRotation: {x: -0.000000009311458, y: 1.813486e-10, z: -0.615464, w: 0.78816503}
  m_LocalPosition: {x: -0.040773623, y: 0.00000003051758, z: 0.00000001525879}
  m_LocalScale: {x: 1.0000001, y: 1.0000001, z: 1}
  m_Children:
  - {fileID: 515836398}
  m_Father: {fileID: 704081527}
  m_RootOrder: 0
  m_LocalEulerAnglesHint: {x: 0, y: 0, z: 0}
--- !u!1 &2034967947
GameObject:
  m_ObjectHideFlags: 0
  m_PrefabParentObject: {fileID: 100034, guid: 959d14bf134f54a6e993fe6ca6e063c0, type: 3}
  m_PrefabInternal: {fileID: 1812994960}
  serializedVersion: 5
  m_Component:
  - component: {fileID: 471072618}
  m_Layer: 0
  m_Name: Bip002 R Foot
  m_TagString: Untagged
  m_Icon: {fileID: 0}
  m_NavMeshLayer: 0
  m_StaticEditorFlags: 0
  m_IsActive: 1
--- !u!1 &2040470158
GameObject:
  m_ObjectHideFlags: 0
  m_PrefabParentObject: {fileID: 100016, guid: 959d14bf134f54a6e993fe6ca6e063c0, type: 3}
  m_PrefabInternal: {fileID: 1812994960}
  serializedVersion: 5
  m_Component:
  - component: {fileID: 2040470159}
  m_Layer: 0
  m_Name: Bip002 L Toe0
  m_TagString: Untagged
  m_Icon: {fileID: 0}
  m_NavMeshLayer: 0
  m_StaticEditorFlags: 0
  m_IsActive: 1
--- !u!4 &2040470159
Transform:
  m_ObjectHideFlags: 0
  m_PrefabParentObject: {fileID: 400016, guid: 959d14bf134f54a6e993fe6ca6e063c0, type: 3}
  m_PrefabInternal: {fileID: 1812994960}
  m_GameObject: {fileID: 2040470158}
  m_LocalRotation: {x: -0.000000015454312, y: 0.000000015454312, z: -0.7071068, w: 0.7071068}
  m_LocalPosition: {x: -0.06716837, y: 0.13374838, z: 0}
  m_LocalScale: {x: 1, y: 1, z: 1}
  m_Children:
  - {fileID: 1805224702}
  m_Father: {fileID: 2085160386}
  m_RootOrder: 0
  m_LocalEulerAnglesHint: {x: 0, y: 0, z: 0}
--- !u!1 &2046656256
GameObject:
  m_ObjectHideFlags: 0
  m_PrefabParentObject: {fileID: 100000, guid: 959d14bf134f54a6e993fe6ca6e063c0, type: 3}
  m_PrefabInternal: {fileID: 1812994960}
  serializedVersion: 5
  m_Component:
  - component: {fileID: 1063608585}
  m_Layer: 0
  m_Name: Bip002 Head
  m_TagString: Untagged
  m_Icon: {fileID: 0}
  m_NavMeshLayer: 0
  m_StaticEditorFlags: 0
  m_IsActive: 1
--- !u!1 &2059687988
GameObject:
  m_ObjectHideFlags: 0
  m_PrefabParentObject: {fileID: 100050, guid: 959d14bf134f54a6e993fe6ca6e063c0, type: 3}
  m_PrefabInternal: {fileID: 1812994960}
  serializedVersion: 5
  m_Component:
  - component: {fileID: 2059687989}
  m_Layer: 0
  m_Name: Bip002 Spine
  m_TagString: Untagged
  m_Icon: {fileID: 0}
  m_NavMeshLayer: 0
  m_StaticEditorFlags: 0
  m_IsActive: 1
--- !u!4 &2059687989
Transform:
  m_ObjectHideFlags: 0
  m_PrefabParentObject: {fileID: 400050, guid: 959d14bf134f54a6e993fe6ca6e063c0, type: 3}
  m_PrefabInternal: {fileID: 1812994960}
  m_GameObject: {fileID: 2059687988}
  m_LocalRotation: {x: -0.000002070677, y: 0.000000684224, z: 0.013477894, w: 0.99990916}
  m_LocalPosition: {x: -0.09316022, y: -0.00008378435, z: 0.00000012931065}
  m_LocalScale: {x: 1, y: 1, z: 1}
  m_Children:
  - {fileID: 1305818814}
  - {fileID: 153220232}
  - {fileID: 840868519}
  m_Father: {fileID: 1888601033}
  m_RootOrder: 0
  m_LocalEulerAnglesHint: {x: 0, y: 0, z: 0}
--- !u!1 &2068362180
GameObject:
  m_ObjectHideFlags: 0
  m_PrefabParentObject: {fileID: 100048, guid: 959d14bf134f54a6e993fe6ca6e063c0, type: 3}
  m_PrefabInternal: {fileID: 1812994960}
  serializedVersion: 5
  m_Component:
  - component: {fileID: 473012038}
  m_Layer: 0
  m_Name: Bip002 R UpperArm
  m_TagString: Untagged
  m_Icon: {fileID: 0}
  m_NavMeshLayer: 0
  m_StaticEditorFlags: 0
  m_IsActive: 1
--- !u!4 &2085160386
Transform:
  m_ObjectHideFlags: 0
  m_PrefabParentObject: {fileID: 400008, guid: 959d14bf134f54a6e993fe6ca6e063c0, type: 3}
  m_PrefabInternal: {fileID: 1812994960}
  m_GameObject: {fileID: 1128682727}
  m_LocalRotation: {x: -0.04586778, y: 0.013275927, z: -0.101802245, w: 0.993658}
  m_LocalPosition: {x: -0.41098914, y: -0.000000007629395, z: 0}
  m_LocalScale: {x: 1, y: 0.99999994, z: 0.99999994}
  m_Children:
  - {fileID: 2040470159}
  m_Father: {fileID: 1546539924}
  m_RootOrder: 0
  m_LocalEulerAnglesHint: {x: 0, y: 0, z: 0}
--- !u!1 &2087473270
GameObject:
  m_ObjectHideFlags: 0
  m_PrefabParentObject: {fileID: 100002, guid: 959d14bf134f54a6e993fe6ca6e063c0, type: 3}
  m_PrefabInternal: {fileID: 1812994960}
  serializedVersion: 5
  m_Component:
  - component: {fileID: 1546539924}
  m_Layer: 0
  m_Name: Bip002 L Calf
  m_TagString: Untagged
  m_Icon: {fileID: 0}
  m_NavMeshLayer: 0
  m_StaticEditorFlags: 0
  m_IsActive: 1
--- !u!1 &2112400637
GameObject:
  m_ObjectHideFlags: 0
  m_PrefabParentObject: {fileID: 0}
  m_PrefabInternal: {fileID: 0}
  serializedVersion: 5
  m_Component:
  - component: {fileID: 2112400638}
  - component: {fileID: 2112400640}
  - component: {fileID: 2112400639}
  m_Layer: 0
  m_Name: Punch Target
  m_TagString: Untagged
  m_Icon: {fileID: 0}
  m_NavMeshLayer: 0
  m_StaticEditorFlags: 0
  m_IsActive: 1
--- !u!4 &2112400638
Transform:
  m_ObjectHideFlags: 0
  m_PrefabParentObject: {fileID: 0}
  m_PrefabInternal: {fileID: 0}
  m_GameObject: {fileID: 2112400637}
  m_LocalRotation: {x: 0, y: 0, z: -0, w: 1}
  m_LocalPosition: {x: 0, y: 1.5, z: -0.75723606}
  m_LocalScale: {x: 0.1, y: 0.1, z: 0.1}
  m_Children: []
  m_Father: {fileID: 0}
  m_RootOrder: 1
  m_LocalEulerAnglesHint: {x: 0, y: 0, z: 0}
--- !u!23 &2112400639
MeshRenderer:
  m_ObjectHideFlags: 0
  m_PrefabParentObject: {fileID: 0}
  m_PrefabInternal: {fileID: 0}
  m_GameObject: {fileID: 2112400637}
  m_Enabled: 1
  m_CastShadows: 1
  m_ReceiveShadows: 1
  m_DynamicOccludee: 1
  m_MotionVectors: 1
  m_LightProbeUsage: 0
  m_ReflectionProbeUsage: 1
  m_Materials:
  - {fileID: 2100000, guid: aae886dd0d5d59844b4ec40cc2d96918, type: 2}
  m_StaticBatchInfo:
    firstSubMesh: 0
    subMeshCount: 0
  m_StaticBatchRoot: {fileID: 0}
  m_ProbeAnchor: {fileID: 0}
  m_LightProbeVolumeOverride: {fileID: 0}
  m_ScaleInLightmap: 1
  m_PreserveUVs: 0
  m_IgnoreNormalsForChartDetection: 0
  m_ImportantGI: 0
  m_StitchLightmapSeams: 0
  m_SelectedEditorRenderState: 3
  m_MinimumChartSize: 4
  m_AutoUVMaxDistance: 0.5
  m_AutoUVMaxAngle: 89
  m_LightmapParameters: {fileID: 0}
  m_SortingLayerID: 0
  m_SortingLayer: 0
  m_SortingOrder: 0
--- !u!33 &2112400640
MeshFilter:
  m_ObjectHideFlags: 0
  m_PrefabParentObject: {fileID: 0}
  m_PrefabInternal: {fileID: 0}
  m_GameObject: {fileID: 2112400637}
  m_Mesh: {fileID: 10207, guid: 0000000000000000e000000000000000, type: 0}
--- !u!1 &2122939011
GameObject:
  m_ObjectHideFlags: 0
  m_PrefabParentObject: {fileID: 100054, guid: 959d14bf134f54a6e993fe6ca6e063c0, type: 3}
  m_PrefabInternal: {fileID: 1812994960}
  serializedVersion: 5
  m_Component:
  - component: {fileID: 1046185463}
  m_Layer: 0
  m_Name: Bip002 Spine2
  m_TagString: Untagged
  m_Icon: {fileID: 0}
  m_NavMeshLayer: 0
  m_StaticEditorFlags: 0
  m_IsActive: 1
